94,16,38,16,0,40,26,0,24,5,26,10,15,16,36,9,25,47,2,27,42,19,95,3,33,0,0,19,16,2,89,4,8,53,8,20,58,11,0,17
7,35,88,30,10,33,8,3,46,15,9,6,17,12,5,1,47,30,2,43,71,43,96,6,57,0,9,9,86,0,59,1,2,30,20,12,31,30,0,17
24,36,100,10,3,49,48,3,42,42,25,30,28,41,6,14,66,62,0,14,59,48,81,11,16,0,7,50,42,0,78,2,2,25,21,30,25,22,0,17
46,123,168,14,3,39,24,11,39,109,14,17,9,12,11,23,47,40,5,41,39,29,65,3,12,1,24,33,132,16,251,7,10,18,14,12,14,15,0,17
76,22,169,24,6,37,55,1,53,47,22,15,26,26,52,30,98,90,5,75,71,48,155,34,55,0,69,77,59,7,138,3,2,30,4,43,13,40,0,17
38,22,40,5,2,30,11,4,26,7,11,7,19,15,18,6,59,22,3,38,15,42,64,17,31,0,8,33,39,20,38,7,4,18,7,14,29,18,0,17
15,17,128,7,4,18,7,6,57,10,43,10,36,23,34,7,68,37,1,44,52,26,80,0,18,0,1,36,50,2,110,10,13,23,21,38,39,48,0,17
44,16,70,12,0,35,11,0,57,16,45,25,9,7,28,30,39,45,0,16,29,52,42,19,33,0,18,44,52,3,48,4,2,20,28,34,17,17,0,17
102,19,97,2,28,116,20,2,39,5,16,21,20,12,30,30,51,27,8,25,26,56,149,14,13,0,9,25,27,3,158,12,1,12,13,59,11,21,0,17
13,8,77,5,0,22,71,0,22,6,30,3,20,16,10,7,41,82,7,10,40,33,41,6,20,2,7,28,37,2,114,11,1,7,5,23,9,12,0,17
25,101,68,9,13,17,104,38,69,24,19,14,21,3,10,25,77,30,5,29,26,22,95,4,28,2,9,21,38,10,63,7,5,43,12,17,61,9,0,17
15,23,139,16,16,54,12,2,42,28,33,27,43,41,13,48,47,49,3,52,62,107,89,12,54,0,16,46,76,7,111,12,8,10,15,31,4,31,3,17
21,18,100,5,5,37,31,1,31,18,21,34,7,13,25,17,67,26,1,33,31,14,83,29,12,0,8,18,52,1,61,2,6,11,12,37,18,28,0,17
21,130,136,32,9,41,58,0,25,8,27,43,9,40,41,18,62,55,0,31,44,61,55,24,36,1,13,38,23,3,139,4,5,38,21,24,153,16,0,17
32,22,51,7,11,33,13,0,21,8,19,18,11,11,15,7,25,10,0,31,23,18,54,19,13,0,17,22,29,6,60,6,0,24,13,13,20,9,0,17
30,5,89,1,0,33,8,2,27,20,18,8,9,19,4,6,17,42,3,26,54,24,70,1,18,0,8,16,31,0,54,21,3,42,25,12,25,16,0,17
