22,20,110,6,8,47,35,7,30,27,32,15,19,16,16,12,33,52,7,34,48,32,73,7,12,2,16,40,36,7,81,6,5,27,18,20,16,15,0,8
33,22,72,35,10,56,7,1,26,26,33,15,21,21,10,23,28,97,3,36,100,53,150,14,56,0,3,41,37,1,100,12,6,40,12,48,51,16,1,8
34,29,126,11,13,37,14,4,39,29,51,30,35,17,23,29,50,45,18,71,62,52,73,27,38,0,64,58,48,11,114,3,19,35,6,27,26,27,0,8
2,13,66,32,12,13,9,1,57,13,33,34,13,10,19,12,18,20,1,8,39,13,44,11,33,0,3,17,26,0,61,11,7,34,30,13,14,5,0,8
12,16,62,15,2,32,20,2,21,16,20,17,13,7,14,22,26,33,8,22,33,38,47,15,38,4,4,29,43,3,57,3,4,22,20,16,20,24,0,8
21,14,69,35,12,19,20,9,34,20,16,58,19,51,8,8,22,58,5,25,53,42,72,0,21,0,7,47,43,3,68,1,4,18,11,19,16,11,0,8
18,57,56,14,6,30,9,3,14,6,26,17,22,20,2,17,15,16,3,39,36,24,41,15,19,0,11,26,33,2,58,3,7,38,24,10,65,16,0,8
41,29,86,9,4,54,35,1,54,18,35,23,37,12,42,21,19,42,0,32,43,49,101,1,22,1,10,26,33,0,96,2,15,41,22,41,34,13,0,8
35,39,112,8,5,26,10,6,63,37,35,44,21,14,3,22,49,22,5,27,19,44,113,19,21,0,18,44,57,34,62,4,0,37,20,22,14,18,0,8
33,19,91,24,5,35,21,3,25,15,13,4,32,16,18,25,64,45,0,46,63,47,76,28,27,1,16,22,37,8,80,8,5,30,20,18,26,22,0,8
32,18,112,7,2,30,52,1,27,19,54,35,55,6,21,30,47,42,2,18,55,17,82,16,33,0,24,71,36,4,102,6,13,40,15,46,42,21,0,8
4,12,58,4,12,24,29,1,27,12,6,4,17,7,4,7,12,22,1,8,18,9,45,4,15,2,3,8,16,1,21,3,6,9,14,22,14,11,0,8
24,25,55,13,5,21,12,2,40,26,23,30,8,17,2,36,81,41,0,32,29,31,58,15,37,0,4,57,83,3,51,7,2,18,3,53,13,21,0,8
30,34,69,6,13,33,27,9,36,26,13,22,20,12,26,24,56,38,1,32,36,30,52,26,18,4,13,52,31,6,83,12,15,36,8,31,37,14,0,8
15,21,71,13,13,32,26,1,22,15,12,18,20,8,15,14,28,24,2,18,58,36,58,4,56,0,5,13,24,2,68,7,3,53,9,31,37,15,1,8
26,23,84,8,11,25,48,1,43,10,3,24,23,18,44,4,53,38,3,15,51,16,65,3,61,1,3,36,56,2,106,34,9,19,3,45,10,15,0,8
11,12,58,8,1,18,12,4,20,12,22,12,8,13,3,6,12,20,1,20,11,20,26,5,10,0,11,10,26,9,55,3,2,21,8,15,5,13,0,8
34,20,76,6,4,36,37,2,26,12,27,14,30,14,18,11,41,35,9,35,39,24,66,22,30,0,5,37,38,3,53,12,14,32,3,28,28,21,0,8
39,26,65,9,8,43,18,18,45,15,10,22,43,7,12,16,57,25,7,23,32,49,47,24,15,0,10,48,38,3,95,7,9,18,11,29,19,23,0,8
34,29,112,12,2,53,33,3,69,34,13,35,26,23,9,15,36,24,4,27,39,22,99,11,22,0,4,29,52,1,102,1,9,42,8,32,39,13,0,8
16,22,47,7,7,36,9,0,27,6,5,21,22,26,9,17,30,19,3,27,41,29,40,12,23,0,6,24,31,2,75,9,6,32,9,33,25,7,0,8
12,18,131,6,8,25,9,5,49,14,31,15,57,15,11,14,33,34,8,25,50,22,86,13,20,0,15,29,60,1,86,10,0,9,28,38,7,9,0,8
24,29,83,11,6,26,36,2,30,11,16,24,24,12,22,10,44,35,3,46,61,29,37,24,7,0,6,23,27,3,50,5,15,35,15,17,46,14,0,8
19,16,58,27,4,33,9,0,13,23,14,7,9,9,6,13,28,7,0,22,16,32,38,17,23,0,5,28,28,0,62,1,0,24,5,13,15,8,0,8
54,21,87,15,15,24,48,0,61,30,35,41,15,23,25,8,54,77,5,31,74,37,81,20,52,1,34,67,62,11,112,8,31,42,7,26,49,16,0,8
43,36,70,5,6,54,10,3,47,12,41,4,19,15,13,8,48,44,13,36,46,43,100,23,35,8,14,20,49,1,75,16,0,5,10,12,13,11,0,8
16,16,90,9,5,44,34,2,37,20,17,13,43,20,7,12,38,45,10,38,62,33,51,6,16,0,9,43,36,2,50,13,9,30,14,23,18,31,0,8
14,32,45,10,13,29,9,1,44,14,29,16,6,21,4,15,11,32,1,33,35,12,73,2,12,0,6,29,20,1,45,6,1,41,10,27,35,13,0,8
44,72,119,9,21,31,30,0,45,16,27,35,30,14,37,40,43,40,5,53,70,41,94,5,39,0,27,46,61,22,179,12,22,55,15,28,49,9,0,8
12,8,78,9,4,11,13,3,23,15,51,24,11,9,8,9,25,25,0,34,40,29,61,6,40,1,12,48,50,12,46,0,12,1,9,39,4,9,0,8
6,27,79,22,0,42,19,1,39,14,17,25,15,4,18,13,26,31,0,26,71,52,29,21,17,1,4,14,32,0,49,11,0,54,20,28,68,25,0,8
30,12,88,4,17,23,10,0,49,2,8,47,10,17,44,15,44,57,1,42,63,58,64,18,28,4,13,37,43,2,70,5,4,33,5,17,27,58,0,8
15,30,66,32,4,7,26,1,29,16,27,19,15,20,1,32,33,52,0,20,67,16,84,9,42,0,9,28,28,30,65,4,7,15,19,14,16,46,0,8
17,29,73,18,19,41,20,5,58,16,22,16,17,9,7,28,22,24,6,17,37,36,57,11,11,0,9,28,34,9,67,4,14,25,10,20,22,36,0,8
42,63,142,14,4,90,29,2,39,36,23,40,20,30,24,37,40,60,9,66,84,50,76,7,13,0,33,35,80,10,161,4,8,42,12,45,38,17,0,8
18,22,56,10,1,27,6,5,25,25,30,40,34,17,4,27,23,19,12,24,35,19,40,14,20,0,8,22,57,8,47,6,10,21,6,29,34,23,0,8
18,22,51,9,8,58,11,0,23,12,18,8,16,7,5,18,32,22,2,30,26,36,62,9,24,0,8,23,28,0,63,9,4,41,14,35,24,20,0,8
49,27,80,12,1,43,20,3,34,16,17,19,33,19,27,11,51,28,7,43,39,56,61,15,32,1,30,47,46,7,88,5,1,13,2,20,3,20,0,8
17,12,109,12,0,44,16,0,32,32,37,3,22,6,16,28,40,17,13,24,24,57,60,17,82,14,5,32,55,4,62,3,1,27,17,17,11,32,0,8
31,61,101,13,3,57,14,4,33,19,10,10,13,13,13,22,43,17,2,28,42,44,66,14,54,0,8,26,18,4,76,9,2,45,21,13,23,8,0,8
4,15,56,4,4,38,9,1,29,14,16,13,9,16,0,14,14,14,1,18,15,24,31,4,6,0,6,19,24,1,39,5,9,1,8,16,4,15,0,8
11,30,19,20,1,13,30,0,35,7,26,11,31,5,3,20,63,39,0,29,72,45,50,11,19,0,20,35,41,0,26,4,0,29,4,39,22,29,0,8
2,27,74,9,5,62,26,6,40,19,12,22,38,26,13,20,47,37,5,25,50,39,76,14,18,0,10,15,36,1,58,4,1,5,16,22,2,26,0,8
27,8,71,8,4,56,9,0,18,7,14,11,15,19,15,25,29,30,4,32,52,28,69,14,45,1,24,22,23,0,88,5,10,26,14,27,17,31,0,8
34,24,117,22,17,23,11,5,27,35,23,27,17,12,20,7,60,31,10,68,62,36,88,9,8,0,15,55,43,5,62,3,10,21,14,20,31,17,0,8
19,40,83,5,7,45,25,0,56,32,29,34,34,12,32,23,50,34,4,23,54,41,75,12,49,0,12,24,26,4,77,0,10,56,25,61,52,28,0,8
27,63,85,18,4,28,33,4,68,20,21,31,41,25,13,13,33,19,5,22,34,33,73,4,30,0,9,40,36,5,72,12,16,48,20,24,90,13,0,8
42,39,100,10,20,51,30,2,61,11,14,16,56,18,32,20,30,48,4,27,38,34,114,2,28,0,44,76,71,4,157,2,20,24,9,22,32,15,0,8
36,24,70,3,3,15,2,7,16,7,31,21,24,3,51,39,39,39,1,30,27,80,50,2,17,0,9,9,34,4,71,2,1,29,26,32,42,8,0,8
13,28,77,15,40,56,18,0,31,17,17,41,20,12,7,16,26,54,0,50,46,31,58,9,24,0,5,21,31,1,137,6,6,28,34,41,28,27,0,8
66,21,116,7,17,22,22,5,45,16,34,11,29,30,49,22,45,43,2,17,31,28,162,2,38,18,15,42,51,8,127,4,11,30,2,37,38,8,2,8
