20,58,71,19,4,28,17,5,37,30,18,0,31,11,16,11,26,30,1,28,36,38,112,8,17,2,14,29,23,0,67,9,6,21,6,26,30,2,0,13
10,10,32,8,6,25,6,2,21,5,11,11,11,10,6,11,18,14,0,14,26,15,36,9,8,0,3,23,11,1,35,1,8,19,9,15,24,7,0,13
46,33,68,8,12,48,46,1,65,14,48,26,41,13,16,32,35,38,3,24,30,21,124,2,46,0,9,38,31,1,86,2,6,17,24,27,36,13,0,13
50,18,96,6,9,34,64,1,56,18,48,14,31,7,40,20,30,27,5,27,31,34,93,6,25,0,3,37,41,4,66,5,36,48,30,25,59,36,0,13
23,21,54,21,9,41,13,0,64,6,28,16,9,18,9,27,25,70,0,27,55,42,88,16,55,0,15,44,21,3,61,8,5,21,29,18,20,18,0,13
9,16,23,6,4,20,39,5,14,6,9,0,82,0,3,67,7,29,0,13,10,20,30,3,6,0,0,10,13,0,22,3,2,4,2,8,6,3,0,13
18,20,64,10,4,31,7,2,47,9,24,13,5,7,11,17,21,35,4,20,26,33,72,7,16,0,2,14,26,4,43,7,10,6,18,19,18,7,0,13
18,0,32,11,1,57,20,2,26,16,12,10,1,6,16,5,12,2,0,10,48,43,39,6,21,0,4,11,10,2,28,2,6,25,0,12,24,4,0,13
60,32,128,31,11,28,51,0,114,16,20,23,23,33,18,25,25,77,4,15,107,42,84,7,35,0,9,42,27,2,41,9,10,12,8,22,11,27,1,13
16,28,84,6,2,29,22,1,28,15,17,8,8,12,6,13,34,31,3,10,32,25,60,6,18,1,11,23,44,6,63,4,4,14,5,11,13,18,0,13
19,8,33,2,2,35,16,1,41,3,9,10,15,1,3,8,13,33,0,6,14,23,42,4,19,1,6,20,12,3,34,2,3,14,4,7,12,13,0,13
14,22,44,3,3,21,33,0,18,12,13,4,34,6,10,9,26,23,3,7,38,11,23,5,8,0,8,23,22,1,57,5,11,27,9,35,42,13,0,13
12,43,81,6,12,35,30,1,46,16,20,20,13,19,4,20,30,34,6,13,38,15,79,8,37,0,6,30,41,4,64,5,1,21,16,17,29,7,0,13
42,36,111,7,6,72,54,0,85,13,52,34,23,8,14,38,25,50,3,33,51,19,144,15,63,0,1,26,21,1,116,11,14,51,54,39,53,12,0,13
33,18,37,7,16,20,7,0,21,11,12,10,4,14,17,23,16,24,2,12,34,11,67,6,31,0,6,22,18,0,47,2,4,23,3,8,23,9,0,13
25,9,28,2,23,12,11,1,45,18,16,10,5,3,3,17,16,34,0,16,35,21,56,2,11,0,1,25,24,0,14,1,9,5,13,12,8,5,0,13
2,16,50,9,4,8,12,3,30,6,4,9,28,3,7,39,12,28,0,3,16,6,52,3,0,0,0,15,24,3,17,3,3,9,4,13,8,6,0,13
8,15,35,3,2,3,5,1,20,9,16,6,6,7,15,5,22,17,0,8,14,15,44,3,10,1,11,11,11,3,19,2,2,12,12,7,13,16,0,13
1,2,17,2,2,1,3,2,2,5,1,3,3,5,0,2,6,5,1,1,9,3,9,1,2,0,3,3,6,0,9,0,1,1,0,3,1,0,0,13
2,36,22,4,30,16,0,0,40,22,4,28,4,22,10,5,8,6,0,2,10,12,62,4,9,0,4,10,52,2,30,2,2,2,2,4,4,12,0,13
9,15,36,6,6,16,17,2,29,15,31,25,7,7,6,13,7,23,4,15,24,17,34,2,11,0,1,21,25,5,32,1,2,7,13,20,5,14,1,13
45,32,109,2,15,39,38,4,29,21,22,19,33,11,12,29,34,38,0,45,50,46,93,3,11,0,11,36,22,1,83,2,9,20,29,13,32,1,0,13
13,13,61,6,2,9,20,1,7,2,6,38,4,42,1,0,44,18,0,15,63,20,16,26,4,0,8,35,2,0,18,2,30,2,29,5,31,1,0,13
8,13,35,6,2,10,76,0,72,2,7,0,56,2,6,35,41,62,0,18,42,18,29,2,41,0,5,11,7,1,35,3,0,5,0,7,7,6,0,13
11,18,31,0,3,20,6,0,39,25,1,0,25,0,4,8,3,19,0,12,7,24,33,3,23,0,0,12,9,12,15,2,0,9,0,26,0,0,0,13
6,3,22,10,2,24,43,2,18,4,12,1,26,0,4,1,7,34,0,10,36,15,14,5,20,0,2,13,21,0,10,1,1,15,23,2,15,6,0,13
44,41,107,29,13,59,101,1,56,8,25,35,57,25,25,54,55,81,0,37,72,43,93,8,39,0,7,42,30,4,77,4,17,69,31,19,75,16,0,13
15,11,32,5,11,23,9,0,26,4,19,3,4,10,12,8,16,16,3,4,17,16,52,3,10,1,6,17,18,1,41,2,1,4,5,13,6,4,0,13
41,32,85,20,6,45,16,0,60,18,20,13,15,6,5,21,32,43,3,17,81,59,81,18,36,0,10,49,39,1,102,2,4,37,23,27,41,12,0,13
18,8,42,3,9,23,10,2,25,11,4,0,17,0,0,0,35,3,0,12,16,50,63,0,1,10,4,3,14,3,27,0,4,8,3,14,8,0,0,13
59,45,76,30,19,79,41,6,82,17,39,21,27,20,27,26,36,51,3,24,79,49,119,11,40,0,12,42,47,5,116,5,9,27,17,22,33,20,0,13
40,19,34,2,2,25,43,0,51,0,23,0,12,2,4,4,41,54,0,6,40,75,83,0,25,1,15,3,27,0,49,0,0,1,0,23,3,19,0,13
5,38,61,7,26,16,22,2,25,16,8,14,14,9,9,12,20,24,7,28,33,42,78,3,4,0,9,15,23,0,41,1,5,10,6,9,10,16,0,13
0,1,8,1,5,4,3,1,4,2,1,0,3,1,1,1,2,3,0,1,3,3,6,1,0,0,0,2,7,0,5,0,0,0,1,4,0,3,0,13
14,15,36,9,3,25,13,2,41,15,15,4,20,12,13,11,42,21,7,23,30,26,47,17,3,0,3,33,24,0,44,1,5,6,4,11,1,7,0,13
47,47,49,46,13,15,23,0,49,26,14,19,18,41,7,55,20,66,1,17,72,59,83,7,79,0,3,64,29,1,35,1,0,51,26,9,58,7,0,13
2,16,31,3,3,13,37,0,20,1,9,5,32,3,3,16,14,47,1,12,15,52,23,4,14,0,6,11,10,1,28,1,3,12,3,5,12,4,0,13
19,11,77,6,2,43,30,1,36,17,9,14,31,7,20,2,26,48,7,14,28,48,41,12,30,0,18,39,42,2,75,6,5,9,16,10,14,10,0,13
39,7,24,7,0,33,38,0,39,1,6,3,12,2,0,21,5,14,1,35,43,19,16,2,44,1,5,47,4,1,30,2,1,9,5,7,11,1,0,13
14,29,42,9,3,22,12,1,14,7,6,1,11,5,11,6,40,24,6,16,24,37,60,4,8,4,1,19,21,2,32,1,1,4,14,5,9,11,0,13
14,36,4,2,4,30,9,8,13,6,30,10,2,0,10,0,35,15,0,10,13,40,35,5,14,6,4,19,26,0,22,0,4,9,6,11,29,3,0,13
25,9,28,2,23,12,11,1,45,18,16,10,5,3,3,17,16,34,0,16,35,21,56,2,11,0,1,25,24,0,14,1,9,5,13,12,8,5,0,13
31,38,51,6,21,25,10,0,57,8,36,15,29,4,13,52,20,15,2,5,13,12,83,4,24,0,11,45,20,0,58,2,14,29,21,18,46,19,0,13
16,19,50,7,5,22,3,0,33,1,5,8,14,6,3,2,17,3,6,11,9,18,43,7,5,0,9,17,27,4,58,7,2,4,3,9,1,2,0,13
10,24,50,9,8,29,37,1,30,15,11,13,26,12,11,7,32,28,1,23,25,28,52,9,13,0,0,19,24,9,35,9,3,8,6,20,3,8,0,13
4,0,64,24,6,4,22,0,6,0,0,8,0,18,0,2,8,56,0,8,72,30,80,0,35,0,0,24,36,0,0,4,0,0,0,4,0,4,0,13
28,6,38,18,6,26,12,0,25,4,19,11,6,2,18,18,28,22,0,8,16,44,96,1,20,0,0,39,31,2,12,3,9,12,6,11,25,9,0,13
19,2,15,3,1,13,5,0,10,1,12,5,2,2,8,22,8,17,0,7,9,5,32,2,1,0,8,20,10,0,18,0,20,3,2,7,17,5,0,13
26,34,73,3,13,23,47,4,27,11,10,0,25,4,8,14,18,43,7,31,39,34,57,2,17,0,6,19,15,0,48,3,2,18,29,20,18,7,0,13
4,3,27,7,6,15,10,1,16,3,4,1,5,3,2,6,15,9,2,6,17,10,37,3,10,0,3,24,10,0,21,2,1,10,0,3,7,8,0,13
34,4,27,11,0,26,3,0,15,5,6,9,14,13,27,5,16,19,0,10,23,12,51,0,18,1,0,23,12,0,52,3,0,4,8,6,1,17,0,13
29,29,78,6,8,33,57,1,50,17,22,16,36,12,8,14,15,46,1,38,41,32,79,5,24,1,1,36,7,5,54,6,9,36,13,30,33,7,0,13
24,42,74,14,10,32,23,0,16,12,12,3,8,23,3,19,38,32,3,19,70,46,49,23,16,0,6,42,43,0,63,0,12,14,19,5,48,29,0,13
6,16,34,10,9,21,3,3,23,12,32,10,33,7,2,11,12,32,22,14,25,50,75,2,10,0,4,33,11,1,27,2,6,4,4,21,2,9,0,13
36,24,56,12,9,8,8,0,38,16,8,12,14,4,24,8,40,10,12,12,20,32,79,0,4,8,0,16,26,4,36,14,0,0,18,22,0,14,0,13
19,20,51,12,5,33,27,2,32,7,4,4,13,4,9,7,17,10,0,5,47,36,72,0,12,2,1,28,10,6,23,1,0,10,5,11,3,12,0,13
62,78,164,36,20,93,55,3,95,48,72,42,60,31,28,55,52,80,8,66,91,93,145,13,48,1,18,70,97,11,181,9,22,48,26,60,63,27,0,13
17,10,44,8,5,40,32,2,23,9,9,5,20,13,11,10,20,21,2,6,22,16,46,6,14,0,10,18,29,1,48,3,7,15,6,7,14,6,0,13
8,71,53,30,2,41,5,1,141,17,7,3,9,14,6,6,20,76,1,15,33,50,27,0,8,0,0,27,26,2,41,0,5,1,6,20,6,9,0,13
26,22,25,7,16,26,10,0,53,0,14,4,9,0,0,5,9,15,0,17,29,9,57,4,6,0,0,36,12,0,52,0,11,18,5,21,20,6,0,13
3,11,29,1,3,13,3,1,26,5,8,4,13,7,4,11,16,12,2,8,7,12,23,8,2,0,3,11,16,4,27,5,4,10,9,5,13,5,0,13
20,27,49,5,2,20,13,3,36,12,19,11,12,7,8,17,23,26,2,11,27,22,63,3,27,0,10,20,28,2,62,6,2,25,15,13,21,9,0,13
14,65,103,7,28,27,74,1,34,11,15,11,15,2,6,25,19,90,24,63,38,41,170,8,84,0,9,18,45,0,127,0,4,13,11,12,12,13,0,13
8,2,21,17,5,29,14,1,33,4,15,14,8,11,0,4,6,25,0,8,26,32,35,3,21,0,6,24,10,2,28,1,0,11,8,11,10,19,0,13
10,32,29,0,37,9,45,0,2,5,15,1,6,3,14,4,12,12,0,33,5,15,60,0,12,3,3,13,6,1,26,2,0,7,0,14,0,5,0,13
12,18,65,3,1,21,8,10,18,8,13,6,10,5,11,15,13,22,2,9,19,23,66,9,22,0,2,11,15,0,49,6,11,6,12,15,5,4,0,13
14,6,65,3,12,12,4,1,29,2,21,5,0,3,4,10,10,10,0,16,58,13,33,0,34,1,2,24,28,3,19,1,3,18,36,8,21,6,0,13
15,9,31,8,14,9,7,1,5,14,15,1,2,3,1,22,11,19,0,4,15,5,31,4,9,0,14,24,8,1,22,1,0,2,4,15,5,6,2,13
19,7,63,1,3,23,15,0,26,5,10,3,6,9,2,12,26,29,0,22,43,38,39,11,9,0,4,10,27,1,47,4,11,20,10,15,18,8,0,13
32,30,64,5,1,14,17,1,28,6,14,7,20,6,23,39,32,23,0,24,33,9,87,6,31,0,2,19,10,3,61,1,5,24,10,23,38,6,0,13
66,48,80,13,18,92,51,3,60,9,26,11,42,19,24,35,37,59,1,42,59,74,119,3,43,1,7,21,32,1,101,3,4,25,22,27,46,12,0,13
60,32,128,31,11,28,51,0,114,16,20,23,23,33,18,25,25,77,4,15,107,42,84,7,35,0,9,42,27,2,41,9,10,12,8,22,11,27,1,13
16,28,84,6,2,29,22,1,28,15,17,8,8,12,6,13,34,31,3,10,32,25,60,6,18,1,11,23,44,6,63,4,4,14,5,11,13,18,0,13
18,30,64,15,6,31,26,5,36,17,16,19,28,10,3,20,25,51,4,21,30,42,66,16,25,1,10,19,23,1,66,5,3,30,14,20,34,6,0,13
8,10,35,13,3,7,3,0,24,10,19,21,17,3,2,9,25,12,0,2,33,24,41,0,12,0,7,23,14,1,22,1,1,19,6,20,10,35,0,13
15,14,48,7,4,36,12,0,28,10,8,9,7,8,2,14,38,9,2,27,29,19,44,14,12,0,15,14,20,4,43,4,4,9,6,17,7,12,0,13
15,18,37,3,2,22,5,2,33,10,15,11,4,3,9,9,17,12,0,9,25,24,61,1,12,0,3,24,14,1,19,10,7,7,18,13,11,11,0,13
61,54,71,33,4,85,11,0,56,7,11,23,24,8,21,28,33,22,4,26,62,32,70,6,42,0,6,112,21,9,159,3,5,21,17,23,50,7,0,13
19,7,63,1,3,23,15,0,26,5,10,3,6,9,2,12,26,29,0,22,43,38,39,11,9,0,4,10,27,1,47,4,11,20,10,15,18,8,0,13
32,23,20,15,9,35,23,1,39,8,18,7,15,3,15,18,9,29,0,8,23,22,54,7,14,0,3,17,7,0,35,4,4,11,7,14,18,10,0,13
19,25,78,15,8,36,12,1,40,13,12,22,15,19,4,21,35,12,4,37,28,29,72,12,16,0,14,25,39,0,72,6,4,33,9,26,25,12,0,13
11,59,101,33,28,57,31,7,87,17,41,6,50,13,13,78,40,63,8,28,75,44,149,16,73,1,5,38,39,0,90,9,7,21,20,33,27,13,0,13
3,15,44,0,2,4,3,2,16,7,16,11,8,6,7,11,14,18,1,11,27,12,48,4,18,0,4,5,15,11,24,4,6,5,8,12,2,11,1,13
32,18,68,16,24,33,18,1,36,13,15,24,15,10,6,27,21,50,5,12,41,35,72,4,23,0,4,45,35,2,84,2,8,24,14,24,23,11,0,13
10,26,50,11,9,74,45,2,56,5,31,17,17,10,11,15,32,48,5,21,24,47,84,3,29,0,6,35,36,1,62,4,4,19,31,12,21,15,0,13
