15,17,51,2,2,19,17,0,25,22,15,26,26,12,6,7,16,48,1,11,22,25,36,3,16,0,15,29,36,4,41,7,4,17,9,26,21,10,0,14
15,25,99,20,13,16,10,6,45,38,40,47,30,22,16,27,37,25,0,26,54,25,78,19,12,1,6,46,32,5,41,12,0,10,18,41,6,24,1,14
32,28,102,16,7,34,13,4,53,37,17,13,31,14,16,8,57,11,4,35,38,25,84,32,17,0,6,24,50,1,89,20,5,12,11,33,2,12,0,14
6,18,59,31,0,60,23,0,31,12,38,21,2,14,3,5,44,11,0,19,38,20,58,13,26,0,15,21,51,1,77,8,2,24,22,36,20,4,0,14
15,46,103,6,13,38,13,3,46,20,24,25,20,24,18,16,52,52,12,35,42,39,68,19,15,0,11,56,59,1,79,8,3,11,15,20,5,22,0,14
12,11,54,4,8,21,22,1,34,18,10,37,3,8,14,11,34,13,1,21,32,16,39,19,11,3,13,37,23,2,48,2,17,10,13,22,14,31,0,14
3,8,26,2,1,15,6,1,13,9,8,2,3,5,0,4,18,6,1,8,7,16,18,5,4,0,1,12,13,0,22,4,0,8,5,4,2,10,0,14
0,10,66,3,20,13,15,0,38,21,17,20,20,4,17,13,27,17,3,7,16,15,53,18,8,0,3,44,8,7,33,7,5,7,5,33,10,17,0,14
27,50,137,15,5,42,9,0,82,44,49,34,29,14,22,24,41,31,16,41,54,57,182,11,67,4,15,39,55,13,96,5,12,36,29,28,16,11,0,14
5,33,53,13,0,13,8,4,39,12,22,8,6,4,0,23,41,21,2,9,25,14,47,35,7,0,6,28,41,0,27,21,0,14,15,8,15,19,0,14
13,24,79,13,11,18,12,1,40,18,30,9,29,22,31,34,34,19,0,16,46,26,97,3,16,1,10,46,29,4,40,6,0,1,8,21,2,35,0,14
6,5,54,6,3,9,10,1,20,8,13,2,3,12,6,9,15,21,1,9,23,10,34,4,1,6,6,21,20,5,17,0,6,4,22,8,8,7,0,14
16,35,132,6,1,10,13,2,29,47,21,27,12,13,8,85,51,104,10,29,115,29,71,7,93,1,15,36,55,5,35,5,1,9,19,4,6,46,1,14
5,16,47,4,0,7,11,1,27,13,13,11,3,10,3,20,15,23,2,8,14,15,34,5,6,0,8,12,15,0,30,5,3,4,2,13,2,14,0,14
6,12,49,6,0,45,12,0,37,11,23,12,5,13,6,10,24,24,6,10,32,11,39,13,11,1,12,30,18,1,37,4,1,7,9,20,1,25,0,14
22,14,70,5,9,25,14,1,38,11,21,10,18,11,11,12,30,38,12,16,27,26,68,3,17,0,8,31,38,1,64,6,6,22,30,19,20,12,1,14
18,40,177,23,0,22,28,2,79,60,43,43,22,22,16,45,40,53,8,29,66,39,113,14,14,2,22,61,46,7,62,9,2,16,30,42,11,48,0,14
5,10,54,9,2,11,15,2,30,20,22,12,3,9,2,3,37,35,0,9,16,21,46,14,4,0,2,21,37,0,32,1,3,5,6,14,5,23,0,14
10,28,103,7,4,17,17,2,37,30,24,17,18,11,5,5,19,66,5,20,31,32,59,11,5,1,10,27,37,2,80,5,1,10,8,12,7,30,0,14
17,24,116,9,6,50,13,6,34,20,22,19,24,11,10,29,52,30,15,35,36,57,84,12,26,2,32,32,84,5,67,2,2,14,31,4,4,20,0,14
0,9,19,0,0,14,3,0,3,3,9,2,7,0,1,13,13,1,0,6,2,30,24,0,8,0,10,16,2,0,20,1,0,0,11,1,0,0,0,14
34,22,127,5,0,31,33,0,23,23,26,13,21,10,14,14,32,24,0,17,26,47,78,21,35,0,44,46,49,5,79,0,0,12,16,5,6,1,0,14
3,19,73,11,5,13,20,4,34,13,13,13,14,15,5,1,31,0,7,24,32,18,42,3,28,2,15,45,32,6,37,4,2,6,8,14,11,15,1,14
8,0,20,7,3,4,3,2,16,0,11,2,0,0,3,3,10,13,1,4,15,3,16,2,8,1,9,15,20,2,22,8,3,8,7,10,5,9,0,14
12,7,65,7,3,29,15,1,34,5,17,19,3,29,5,11,19,24,1,7,38,15,43,6,21,0,8,36,27,1,43,1,19,5,5,26,18,10,0,14
6,21,45,18,2,11,5,0,19,19,13,6,8,6,12,12,24,27,1,24,31,10,34,4,16,0,18,28,43,4,35,9,1,5,5,26,4,10,0,14
2,6,33,5,1,13,8,0,19,6,12,6,15,5,2,4,8,10,2,16,7,14,19,7,5,0,5,11,10,1,11,12,3,2,4,9,0,10,0,14
41,32,127,68,11,57,17,4,87,36,25,36,28,9,67,37,76,100,7,43,91,81,110,31,27,0,19,95,48,15,69,10,14,16,5,23,9,36,0,14
18,34,92,4,10,26,5,2,30,42,23,36,23,30,21,26,44,35,2,17,45,18,45,4,10,1,11,27,29,21,94,2,11,12,26,45,16,27,0,14
25,22,118,6,6,39,49,1,32,10,6,5,48,17,4,11,33,27,2,74,26,21,57,16,19,4,46,70,20,2,85,3,3,7,3,13,4,11,0,14
3,14,47,8,2,31,1,3,18,5,14,14,5,11,0,8,14,20,0,8,32,22,29,3,4,0,5,21,22,2,24,9,2,14,22,11,12,12,0,14
6,16,111,6,17,26,21,1,26,10,10,23,7,14,13,16,37,19,0,45,15,47,29,15,14,6,10,24,21,7,61,10,8,19,29,20,15,11,0,14
6,6,35,12,3,2,13,0,21,12,6,8,3,10,2,6,10,12,1,2,8,11,17,1,3,3,3,16,10,1,25,0,0,0,3,3,0,6,0,14
10,11,58,7,4,37,17,0,31,22,26,20,9,10,15,6,26,14,2,15,35,23,50,3,20,0,7,34,39,5,49,3,1,9,8,15,3,30,0,14
4,22,148,19,16,37,46,7,26,31,9,30,9,10,3,14,40,24,1,37,54,17,78,23,5,0,1,16,23,1,86,3,2,11,24,17,10,61,0,14
44,55,103,7,21,39,23,4,87,28,49,32,24,22,40,38,68,60,7,33,47,57,139,11,47,2,11,61,52,13,75,12,17,27,10,39,40,25,0,14
18,26,70,15,0,44,14,1,58,25,10,11,14,14,10,10,25,26,7,23,58,14,50,11,12,0,5,37,34,1,44,1,1,14,7,39,8,15,0,14
5,26,62,4,7,22,9,0,30,21,20,9,5,11,7,12,26,22,3,15,25,26,55,12,13,2,7,26,32,4,58,3,2,14,12,15,16,10,0,14
23,25,30,12,2,7,10,8,33,13,12,16,10,13,5,4,38,15,8,10,34,14,41,19,10,0,8,42,11,3,18,2,0,0,8,22,2,21,0,14
29,25,81,11,5,25,6,2,48,17,22,12,9,17,17,11,39,57,1,13,34,70,52,12,24,2,9,31,42,7,42,19,4,5,26,17,9,14,0,14
5,4,37,6,0,17,8,4,16,8,7,17,10,17,1,5,16,7,1,5,19,10,22,7,7,0,5,19,11,1,18,3,3,17,4,13,19,14,0,14
11,28,79,5,11,19,27,2,54,10,9,16,11,10,10,14,28,45,8,24,47,31,43,15,14,3,11,50,25,3,30,5,5,15,9,23,7,11,0,14
17,33,100,6,2,42,15,7,34,27,28,22,12,12,5,17,30,28,1,33,49,29,53,5,11,1,20,26,45,4,47,5,5,4,26,19,3,26,3,14
1,16,53,10,9,28,7,0,26,26,16,14,5,4,3,9,21,22,0,8,33,21,39,4,18,0,5,36,9,8,48,3,6,9,15,9,11,26,0,14
21,20,21,4,0,26,3,0,27,2,10,29,13,19,3,6,35,27,0,11,44,23,33,15,19,0,11,23,16,5,40,5,9,20,4,23,25,13,0,14
6,6,31,9,0,4,8,0,8,10,8,5,5,6,7,7,11,12,1,13,11,6,23,3,8,0,4,15,22,1,26,3,0,6,5,8,0,6,0,14
6,10,59,5,5,18,5,0,18,9,9,15,6,2,1,4,26,5,3,13,30,6,37,4,6,0,11,13,21,3,28,4,0,7,8,16,5,12,0,14
21,18,104,22,1,11,13,5,35,37,32,20,24,17,12,11,25,28,2,19,62,30,57,12,12,3,15,46,37,2,36,2,0,11,20,22,3,25,0,14
17,16,69,26,4,23,6,1,35,13,18,30,8,12,25,6,34,15,4,24,34,20,72,13,15,0,10,22,27,12,38,4,9,25,8,38,22,24,0,14
1,19,55,7,1,13,34,0,32,11,20,4,12,5,10,5,22,22,0,13,29,13,34,11,2,0,5,8,20,2,26,4,3,3,3,16,6,7,0,14
4,48,150,7,30,28,9,1,56,59,32,45,12,14,7,29,35,59,3,29,62,33,63,13,11,0,84,62,35,5,46,4,3,18,34,28,8,29,1,14
8,20,111,7,2,22,13,2,30,20,16,13,8,26,9,4,32,27,5,13,33,25,67,16,3,0,7,22,18,6,61,5,2,7,17,32,1,31,0,14
6,23,81,9,4,18,21,2,47,35,13,13,11,20,2,9,21,18,0,16,42,22,47,7,10,6,4,34,32,1,41,4,8,5,10,14,1,16,0,14
44,60,188,13,6,30,39,8,129,57,45,59,36,39,40,36,71,65,3,54,101,78,121,28,7,3,40,74,50,3,57,14,14,7,20,49,17,54,0,14
16,19,120,16,10,24,22,1,29,43,39,32,14,17,1,15,32,31,8,24,40,28,76,10,11,0,16,50,53,2,69,5,1,6,23,27,10,35,1,14
12,11,35,7,4,16,10,0,21,4,14,18,4,12,9,5,27,16,0,9,24,13,32,18,11,1,8,27,25,1,25,5,1,6,10,8,6,9,0,14
31,15,88,5,4,44,11,4,45,18,40,22,20,43,21,23,47,48,3,32,43,38,67,7,32,0,9,33,56,21,44,5,6,20,16,14,18,29,0,14
7,13,59,6,1,14,7,2,30,15,24,24,7,10,13,8,40,20,2,8,31,15,46,18,14,0,7,16,35,8,27,1,2,6,12,27,0,20,0,14
10,17,59,15,4,25,16,1,28,13,20,9,19,17,8,10,23,12,1,19,29,23,36,5,6,0,3,35,20,4,36,1,2,0,15,13,4,23,1,14
9,12,89,9,6,24,31,3,44,14,29,19,11,52,9,12,16,124,2,10,34,63,79,5,22,1,9,77,20,1,51,4,2,13,6,25,10,11,0,14
7,19,27,7,1,6,21,2,26,11,22,13,8,12,15,5,24,20,1,6,52,19,21,5,24,1,6,23,14,1,32,5,6,31,1,14,28,21,0,14
0,10,70,5,4,10,19,1,32,8,10,8,2,18,1,7,14,13,0,5,12,1,37,10,9,0,2,10,4,1,18,5,5,21,11,21,16,16,1,14
13,25,78,4,0,16,13,0,45,15,13,7,5,4,4,18,14,4,2,14,42,14,54,2,30,1,9,17,19,1,41,3,3,23,9,13,18,11,0,14
5,14,43,5,0,12,14,1,12,9,6,4,4,11,2,4,23,16,0,12,25,12,12,8,12,0,8,32,20,7,25,2,11,2,11,6,12,15,0,14
11,20,80,6,8,11,20,9,36,33,23,22,37,11,4,8,21,15,5,20,29,27,67,10,9,1,13,30,33,2,45,2,8,6,12,19,3,25,1,14
9,8,116,3,4,55,10,0,48,49,23,14,5,14,1,5,18,12,6,28,24,38,57,2,4,1,19,27,44,0,68,2,6,8,16,13,3,10,0,14
34,42,96,11,1,55,39,3,53,29,19,18,33,18,13,7,64,41,5,50,71,36,87,18,19,2,28,50,65,3,78,11,22,15,10,26,25,42,0,14
13,26,70,14,9,38,21,5,23,22,13,18,27,12,8,13,35,37,5,19,35,22,30,16,14,0,9,30,22,1,55,5,11,18,15,50,28,18,0,14
68,41,167,19,15,34,55,3,80,39,35,34,55,11,27,29,80,80,7,40,51,49,160,13,26,3,24,68,69,17,130,19,6,18,19,46,8,30,0,14
8,15,38,3,15,19,5,1,37,15,3,23,14,9,6,4,29,37,1,24,32,10,40,1,12,0,3,19,19,3,42,3,0,6,29,13,1,16,0,14
12,5,65,6,2,21,8,4,14,14,6,15,18,12,2,5,23,16,0,27,20,19,26,8,7,0,16,29,18,4,31,7,7,2,6,17,11,29,0,14
3,6,18,1,0,6,2,1,9,6,5,1,4,4,1,11,5,8,0,7,5,9,11,1,0,0,1,8,3,0,10,2,0,1,1,3,0,6,0,14
9,16,104,9,8,29,20,3,35,21,26,14,24,10,8,22,29,23,2,22,42,31,52,13,14,0,18,30,38,3,45,7,1,8,27,19,5,14,0,14
52,80,306,27,10,62,36,5,147,75,67,41,48,27,34,72,93,77,7,78,118,76,186,28,47,5,96,83,89,33,159,5,13,42,38,60,16,67,0,14
12,11,68,12,11,30,10,2,27,20,18,30,17,17,8,19,32,17,0,13,29,12,49,12,2,0,5,35,25,3,49,9,5,12,15,25,20,13,0,14
16,9,85,8,4,10,10,0,14,20,7,13,23,7,7,18,38,19,4,21,28,16,49,10,17,0,17,24,43,0,58,7,0,8,6,29,5,14,15,14
9,28,107,16,3,43,10,3,50,20,27,24,21,9,7,22,41,31,11,31,49,31,57,17,23,0,14,28,38,7,45,6,3,5,26,52,3,23,0,14
2,19,70,11,1,28,16,1,29,25,23,16,9,5,7,6,38,19,1,9,32,17,29,14,6,0,5,24,28,1,26,3,0,3,14,13,2,29,0,14
7,7,69,6,4,23,3,0,19,16,27,12,10,8,8,3,25,22,1,13,24,26,36,10,10,0,13,18,36,3,37,5,1,13,30,15,5,21,1,14
36,60,284,19,10,30,51,8,106,64,49,59,52,30,26,10,81,91,11,53,109,47,132,22,25,1,33,105,122,25,122,18,17,40,73,36,47,42,0,14
20,20,114,9,7,13,13,9,60,24,23,28,16,14,7,32,38,27,9,28,40,28,84,14,18,4,12,35,54,6,45,6,7,10,13,17,12,41,2,14
26,22,123,21,3,25,12,3,40,19,20,23,26,25,28,9,63,34,4,21,36,42,75,7,8,1,27,58,51,15,104,9,15,14,12,34,27,31,0,14
6,12,62,5,3,13,8,5,31,17,30,10,6,13,6,15,26,9,1,18,20,13,42,14,19,1,12,32,35,4,33,5,2,0,4,16,1,22,0,14
34,16,63,14,6,9,7,3,16,17,24,14,23,12,17,13,32,12,1,21,37,18,61,2,11,0,10,41,32,2,57,3,3,19,5,15,24,11,0,14
14,12,69,11,5,17,10,3,23,28,8,13,21,9,12,6,38,19,6,25,40,17,36,16,7,0,8,42,38,3,52,7,5,18,11,9,18,27,0,14
10,15,71,12,1,40,8,2,29,24,11,20,7,15,5,6,20,15,1,22,44,15,32,12,7,0,10,22,23,6,39,0,12,15,11,22,12,26,0,14
36,62,211,28,10,22,62,3,94,62,50,51,36,30,12,29,51,63,12,43,74,81,134,16,22,6,16,87,68,8,109,17,25,44,45,40,46,58,0,14
12,10,35,8,1,15,1,1,12,6,3,6,10,14,4,2,15,3,1,6,32,8,31,7,8,0,0,9,13,0,33,1,0,5,6,7,3,4,0,14
