AA,AE,AH,AO,AW,AY,B,CH,D,DH,EH,ER,EY,F,G,HH,IH,IY,JH,K,L,M,N,NG,OW,OY,P,R,S,SH,T,TH,UH,UW,V,W,Y,Z,ZH,Genre
29,21,67,24,8,28,22,7,72,6,34,23,27,23,14,10,56,32,11,51,62,40,87,23,22,0,26,81,53,5,69,10,9,12,7,25,7,13,0,Acoustic
15,17,20,10,3,13,20,4,25,0,14,16,37,8,18,22,16,19,2,33,29,24,51,4,5,0,27,26,17,9,51,3,10,11,7,7,5,8,0,Acoustic
33,56,133,46,15,46,50,12,184,6,66,72,53,36,25,24,111,74,13,76,146,68,138,62,47,3,58,118,131,15,144,10,16,11,31,51,6,12,0,Folk
7,12,15,0,0,35,14,2,35,1,13,1,17,2,3,16,42,10,0,10,29,26,47,1,12,2,3,32,17,0,25,0,4,2,7,24,0,3,2,Acoustic
6,7,5,0,0,5,0,0,4,0,7,2,6,9,2,8,11,4,0,10,26,3,10,8,6,0,4,7,5,4,11,2,2,1,6,1,0,1,0,Classic Rock
20,27,122,15,11,34,27,5,85,11,72,36,50,34,20,18,71,58,7,65,90,42,121,36,54,1,43,83,99,25,92,7,10,11,18,20,10,10,0,Classic Rock
4,3,11,5,1,20,1,1,25,0,17,8,4,11,0,3,4,7,0,13,5,19,36,3,5,0,3,23,4,0,8,2,0,1,8,4,0,4,0,Folk
7,5,14,4,0,11,3,4,20,0,10,11,9,9,7,6,19,11,0,6,14,17,24,7,2,0,4,20,15,1,23,1,3,6,7,6,1,2,0,Folk Rock
70,96,178,40,23,83,71,20,173,18,71,131,102,63,59,54,204,102,11,157,186,133,324,71,68,7,78,152,165,25,255,32,30,29,20,62,79,26,0,Country
9,6,26,6,2,11,3,0,13,2,9,12,14,2,3,3,14,10,1,7,20,10,39,1,4,0,7,17,29,7,41,5,2,13,4,7,2,1,0,Classic Rock
18,3,15,6,0,18,5,2,26,3,10,6,20,3,19,2,12,13,1,6,17,23,36,6,2,2,0,10,8,1,27,7,2,0,8,11,1,0,0,Rock
9,3,21,13,0,11,3,2,25,2,13,6,25,9,7,4,26,23,0,20,29,14,41,11,11,0,6,25,25,2,41,4,0,5,6,14,5,6,0,Rock
9,6,23,4,4,9,19,2,36,0,25,3,8,2,8,3,15,12,4,21,23,12,28,7,16,0,11,16,11,6,20,3,5,2,6,14,2,2,0,Classic Rock
27,34,63,6,4,15,19,10,83,1,34,28,16,19,30,12,65,40,3,39,49,39,122,6,19,2,18,42,54,5,79,2,19,9,14,24,8,8,0,Folk Rock
20,10,37,10,3,15,15,4,30,1,7,13,14,11,11,5,26,19,7,22,31,23,44,7,13,1,9,31,32,3,46,1,2,12,9,15,4,2,1,Classic Rock
20,14,47,14,2,23,15,3,37,6,16,9,22,12,10,22,16,27,3,39,53,30,47,5,9,5,19,33,44,2,54,2,6,8,4,23,7,4,0,Rock
4,3,7,19,1,4,11,1,26,3,0,0,14,1,7,2,7,8,1,6,22,2,12,2,1,0,2,3,5,1,11,2,4,2,3,4,2,1,0,Acoustic
11,7,37,8,5,14,11,2,39,5,39,16,21,12,13,12,26,13,3,23,29,19,43,12,11,1,9,25,37,2,41,11,3,4,5,22,3,5,0,Blues
31,2,11,2,0,13,5,2,6,1,13,2,13,1,35,0,18,10,0,13,14,6,34,4,16,1,6,13,21,1,58,4,2,1,2,8,0,1,0,Acoustic
13,4,44,4,0,10,6,2,6,0,24,1,24,5,12,5,19,2,16,16,23,6,48,6,5,0,4,24,30,1,24,7,0,3,7,6,3,0,0,Classic Rock
4,0,7,0,0,2,1,1,8,0,11,15,3,6,6,3,10,2,0,7,17,4,12,4,10,0,2,3,8,1,11,4,0,7,8,2,7,2,0,Rock
32,15,70,9,9,12,14,3,61,5,36,15,33,9,31,12,24,30,3,21,57,30,68,6,9,1,12,35,45,10,51,6,13,18,8,31,20,7,1,Rock
25,9,10,5,0,6,4,1,21,0,11,10,13,3,15,5,14,14,1,11,24,5,18,8,14,0,29,17,13,4,37,0,9,2,11,7,2,6,0,Classic Rock
7,2,23,19,0,7,11,0,22,22,14,0,31,7,10,2,11,18,0,13,45,9,40,5,35,0,2,31,39,0,47,0,8,0,7,14,15,0,0,Jazz
12,26,78,12,9,22,13,6,52,4,25,26,14,19,22,10,48,38,5,40,48,27,77,17,16,1,24,42,74,11,74,3,6,12,16,14,11,11,2,Jazz
22,6,24,10,0,11,2,3,22,0,11,1,4,3,8,17,20,17,0,18,28,14,39,8,11,1,7,31,20,0,16,2,2,1,8,13,5,1,0,Blues
4,41,24,8,4,12,20,2,36,1,19,17,3,8,22,14,25,10,17,23,39,20,29,18,21,0,11,17,44,7,43,1,4,4,3,2,5,17,0,Classic Rock
7,9,45,17,8,16,13,8,43,6,26,22,16,14,12,7,36,16,1,28,40,24,62,15,18,0,10,42,26,4,46,8,3,5,6,23,3,5,0,Acoustic
7,0,19,3,0,6,3,4,13,0,7,4,10,0,5,6,13,7,0,6,22,11,15,4,3,1,3,9,8,1,20,2,1,4,5,6,3,3,0,Classic Rock
11,8,27,5,1,11,18,0,22,1,14,5,9,9,4,6,11,7,0,8,27,17,20,7,7,1,11,30,14,2,21,2,4,10,9,3,9,4,2,Classic Rock
14,18,31,7,2,13,31,0,26,1,9,3,28,3,5,9,21,35,5,22,22,36,44,2,5,2,14,38,26,2,34,4,0,0,1,4,0,1,0,Rock
37,56,94,22,16,48,43,7,116,4,78,45,39,35,28,36,104,58,38,108,95,61,140,27,29,3,28,110,93,9,119,12,19,17,26,47,7,13,1,Classic Rock
16,19,34,6,4,9,15,4,36,2,18,11,19,12,16,8,28,13,1,21,38,11,44,11,13,1,10,16,26,6,41,6,4,5,11,16,3,5,0,Classic Rock
26,50,93,18,9,40,45,5,75,7,51,40,45,26,21,19,46,42,7,88,87,48,120,15,26,3,35,83,75,7,74,9,5,15,17,30,5,13,0,Classic Rock
11,8,23,8,0,11,8,0,20,1,13,3,8,4,11,3,15,10,1,8,25,15,36,2,4,0,5,11,12,2,20,0,5,8,10,16,7,3,0,Acoustic
6,13,32,4,2,17,5,7,20,7,28,11,7,8,4,5,20,19,3,5,23,20,31,12,5,0,17,25,28,1,27,12,1,2,7,6,13,9,0,Classic Rock
16,17,55,26,9,23,19,0,57,4,29,18,27,16,17,13,21,22,4,42,57,42,68,13,34,1,19,51,57,10,65,9,17,6,7,21,3,2,0,Acoustic
20,18,23,13,1,15,21,1,13,0,30,24,12,9,18,10,22,22,0,18,31,24,31,10,13,2,15,35,40,1,52,2,3,6,12,11,10,1,0,Folk Rock
17,8,37,9,3,27,36,1,40,4,15,10,27,2,15,15,62,12,0,41,88,17,58,34,37,1,7,24,38,3,27,1,3,15,6,24,5,3,0,Folk Rock
7,10,31,4,5,3,19,2,35,0,11,9,9,5,13,24,26,11,0,26,39,23,37,1,28,3,5,17,20,3,32,4,12,2,4,9,1,0,0,Rock
50,39,103,37,27,59,60,8,108,6,90,79,41,27,44,29,91,87,7,98,162,76,176,35,43,0,54,122,89,19,149,16,12,24,44,49,19,33,0,Rock
15,2,36,2,3,19,5,1,28,7,11,5,6,2,6,12,27,43,0,23,33,6,36,8,11,0,16,29,29,3,62,2,4,11,4,3,4,28,1,Classic Rock
2,5,17,5,4,12,4,0,20,0,9,8,8,4,0,5,12,8,6,14,10,5,16,6,5,0,8,22,21,1,30,0,3,1,3,5,1,1,0,Folk Rock
6,6,25,1,0,12,16,0,10,0,7,3,9,5,5,7,20,16,0,21,23,12,18,6,5,0,7,14,12,0,21,1,1,3,5,6,2,1,0,Classic Rock
6,12,27,4,0,6,5,3,21,2,3,7,14,16,6,2,15,15,3,9,19,8,31,2,14,1,7,27,18,2,25,9,5,3,5,16,3,4,0,Classic Rock
14,5,21,11,0,16,12,3,21,1,12,4,6,6,2,5,34,12,0,26,23,26,40,8,13,0,1,21,15,1,29,5,1,0,2,15,0,2,0,Jazz
6,14,20,8,0,7,19,1,18,4,11,13,12,8,8,7,14,15,0,19,19,11,22,11,10,0,6,17,21,2,28,2,1,9,7,5,4,3,0,Blues
10,8,26,7,2,21,16,3,34,1,12,12,25,2,6,4,26,6,1,20,22,15,57,7,8,0,1,20,17,2,45,6,5,8,7,18,7,7,0,Blues
14,5,23,2,0,18,8,0,21,2,19,11,9,5,9,4,25,18,0,15,22,16,36,11,6,0,6,23,14,1,33,2,3,5,16,7,6,2,0,Folk
29,24,69,11,4,25,25,5,45,8,40,27,12,23,22,14,47,36,3,44,56,44,70,19,26,0,22,52,53,4,72,6,11,11,20,21,4,15,0,Classic Rock
15,30,33,21,2,5,15,0,38,2,19,19,6,11,16,5,18,20,4,17,39,20,60,20,8,1,8,34,19,2,39,3,8,5,6,13,0,3,0,Acoustic
16,3,10,4,0,7,11,0,19,0,9,3,9,4,8,1,15,8,0,11,20,11,32,2,3,1,1,10,9,2,21,1,8,1,4,11,0,0,0,Classic Rock
6,11,26,7,1,10,9,1,25,2,20,16,24,10,7,12,28,16,5,14,38,19,32,6,14,0,18,20,32,8,43,3,3,10,9,16,4,4,0,Classic Rock
10,10,20,5,1,11,15,3,39,2,19,8,14,6,4,11,12,7,1,13,28,13,25,6,14,4,6,24,19,5,24,2,1,8,4,6,2,2,0,Classic Rock
14,6,28,5,1,8,5,3,17,3,12,10,5,13,4,4,8,17,2,25,24,8,18,1,12,3,11,23,16,3,21,2,1,9,9,8,2,2,1,Classic Rock
48,24,9,8,1,10,12,0,22,3,14,21,29,14,37,6,15,22,0,27,15,31,67,2,2,0,6,29,20,5,29,0,3,1,7,24,1,15,0,Folk Rock
14,4,30,11,0,9,14,2,17,2,17,6,22,17,6,6,35,13,1,26,40,19,33,11,11,1,20,26,32,4,70,0,3,4,3,23,1,3,0,Classic Rock
1,19,38,4,9,8,1,9,14,1,8,5,6,4,4,8,13,12,2,13,27,6,52,4,3,0,2,6,16,0,8,2,6,1,4,19,1,0,0,Acoustic
8,2,23,9,0,14,9,0,16,1,38,7,13,6,14,5,4,11,0,17,49,14,25,1,13,1,8,22,25,0,50,1,2,3,4,4,5,3,1,Classic Rock
6,8,17,10,2,11,16,2,26,2,16,12,9,8,6,5,18,16,0,17,29,14,32,2,7,0,8,21,17,7,29,4,6,10,10,6,1,2,0,Rock
24,13,24,2,1,14,13,2,41,2,19,10,13,5,4,2,30,26,2,28,33,12,58,18,19,0,10,30,20,0,32,0,4,0,18,12,4,2,0,Classic Rock
2,11,7,14,12,6,0,2,12,0,1,12,4,14,3,3,12,5,0,5,37,11,32,1,10,2,1,4,13,0,10,0,0,1,2,20,1,2,0,Classic Rock
18,9,36,20,12,20,8,1,29,2,30,18,17,9,8,13,51,34,2,32,48,36,78,7,11,0,13,41,42,2,71,1,2,13,11,9,12,3,0,Acoustic
36,12,9,34,0,3,0,0,28,0,18,6,3,0,18,0,3,3,0,18,37,9,42,0,6,0,6,37,0,9,24,0,0,3,3,6,15,0,0,Acoustic
7,11,34,3,0,6,7,6,8,5,18,15,11,5,3,8,18,26,0,15,27,22,31,6,11,1,5,11,15,1,12,7,2,0,17,8,1,8,0,Rock
23,46,44,11,4,22,37,3,44,0,21,12,14,9,11,17,27,41,13,40,65,16,54,7,6,2,9,25,45,2,74,2,4,1,1,11,2,3,0,Classic Rock
7,8,27,14,5,16,25,3,25,0,17,1,26,5,13,14,35,22,1,16,39,19,31,2,6,0,3,22,20,5,40,0,6,7,3,26,5,3,0,Acoustic
10,19,67,7,2,20,29,1,44,2,13,17,13,11,9,9,22,33,3,24,50,14,49,7,9,0,2,20,32,3,30,7,5,5,26,11,2,5,0,Folk Rock
7,12,33,2,2,15,21,2,23,3,24,11,11,3,8,14,31,24,3,21,47,20,38,16,12,0,7,24,31,2,31,0,1,10,4,21,4,3,0,Blues
3,18,15,9,4,6,15,0,27,0,16,11,10,8,9,4,15,20,7,14,20,12,30,4,11,0,7,31,20,1,37,1,5,1,4,5,4,0,0,Classic Rock
8,18,22,9,1,3,13,0,18,0,19,5,8,12,11,4,18,17,3,19,44,8,14,15,5,0,10,19,16,3,29,1,11,3,2,17,1,1,0,Folk Rock
5,4,18,9,4,18,7,0,23,0,7,2,6,3,7,5,13,9,0,8,10,17,31,6,1,0,1,19,15,1,17,4,2,2,2,5,1,5,0,Folk
4,6,19,3,0,5,8,1,21,1,9,7,3,6,3,4,7,11,1,7,12,11,21,6,5,0,7,10,13,0,16,1,4,1,0,5,0,2,0,Folk Rock
7,9,26,12,15,19,5,2,50,4,36,15,9,16,24,7,19,22,1,19,42,17,45,9,20,1,17,40,32,0,49,6,10,5,7,15,5,4,0,Acoustic
27,9,21,6,4,6,22,0,15,1,10,9,20,8,16,6,12,7,2,11,34,24,31,4,15,0,1,29,10,5,38,3,3,11,5,10,0,3,0,Folk
1,9,23,16,2,7,17,2,30,1,5,7,10,7,12,18,12,18,0,16,23,10,36,8,33,1,4,12,19,2,9,0,2,2,7,13,1,1,0,Acoustic
24,11,37,15,17,17,22,2,52,0,13,12,13,11,17,7,32,19,6,30,42,17,71,11,15,3,15,31,31,0,41,3,2,9,8,18,9,2,0,Folk
17,18,60,19,2,15,9,3,52,1,31,13,10,22,9,9,30,36,1,46,63,36,63,7,11,0,11,43,40,4,62,3,12,4,8,20,3,6,0,Country
7,9,27,2,2,5,6,2,13,2,5,7,19,3,0,1,9,27,10,35,12,16,55,1,12,0,7,11,22,4,28,0,1,2,6,22,2,5,1,Classic Rock
114,1,52,3,10,23,38,4,81,6,8,12,11,5,6,2,9,37,4,15,20,7,139,2,20,0,2,21,4,2,84,1,1,16,1,36,20,10,0,Rock
6,8,25,9,2,7,3,0,23,2,9,4,9,2,7,12,24,19,0,11,17,19,32,11,10,0,8,19,18,0,16,7,5,1,6,8,1,4,0,Folk
4,5,26,3,0,10,7,3,10,0,8,4,9,3,6,7,8,17,2,13,24,5,24,0,15,0,12,18,10,1,19,2,0,3,5,2,0,2,0,Rock
1,11,22,17,1,11,7,0,11,0,0,9,3,2,2,7,23,18,1,16,15,24,55,13,6,0,5,31,15,1,18,5,0,20,2,4,1,1,0,Rock
14,26,68,3,8,17,13,8,25,3,21,7,15,16,14,18,27,43,0,33,44,45,63,16,21,2,17,32,60,2,65,5,11,5,7,13,5,8,0,Rock
8,16,49,14,2,16,45,1,41,3,28,17,45,12,9,9,28,43,1,35,56,41,45,12,13,1,7,31,53,0,43,10,6,25,15,11,21,9,0,Rock
14,12,49,9,2,24,8,8,25,10,20,23,27,24,11,2,27,25,3,23,29,26,70,8,10,0,12,34,53,9,49,9,9,9,11,26,1,6,0,Rock
19,8,17,3,3,8,12,3,28,1,10,11,13,3,10,6,30,12,0,22,25,13,29,13,11,0,6,23,8,7,21,3,3,3,5,15,0,2,0,Classic Rock
2,4,10,5,0,9,1,1,7,0,4,2,11,1,3,3,15,5,0,4,19,8,16,8,13,0,2,12,4,2,18,4,0,2,4,13,2,3,1,Rock
24,22,51,16,2,13,3,0,66,3,14,19,19,5,18,16,17,36,6,27,42,49,73,10,13,0,2,30,24,1,35,7,6,9,7,9,3,4,0,Rock
12,22,76,12,5,21,14,4,62,2,23,19,23,15,18,14,49,36,7,37,48,31,69,16,19,1,32,39,62,12,61,6,0,8,7,21,2,7,0,Folk Rock
18,10,41,14,6,37,10,2,31,2,20,27,8,17,3,7,34,20,1,42,52,30,46,19,9,0,7,25,40,3,54,4,5,9,21,14,8,4,0,Rock
38,5,24,7,1,11,2,1,36,6,14,7,8,5,34,3,14,14,1,16,20,7,49,9,29,0,10,28,21,0,30,2,1,2,7,5,4,7,0,Folk Rock
24,8,46,14,17,22,21,4,32,4,28,10,18,17,13,20,37,22,4,34,63,35,49,14,13,1,14,50,44,4,68,5,5,10,11,19,8,3,0,Folk Rock
21,24,67,7,3,25,51,3,84,2,33,36,34,11,13,40,27,63,4,34,72,26,85,3,9,1,26,30,51,3,53,6,38,5,13,29,1,14,0,Rock
24,24,46,9,6,6,11,3,34,1,21,15,20,9,11,18,40,24,11,43,29,38,66,17,32,1,17,27,56,3,46,10,4,5,5,15,6,13,0,Classic Rock
6,3,59,16,7,8,8,0,29,0,10,17,20,1,0,3,22,7,0,22,31,12,33,5,8,0,1,28,11,5,5,1,12,1,13,29,2,7,0,Rock
10,3,8,1,0,8,6,0,15,0,9,4,1,3,5,6,13,12,1,6,15,9,18,4,6,0,3,15,10,3,17,2,3,3,4,8,1,0,0,Acoustic
35,16,67,12,12,30,14,5,87,2,42,26,23,19,16,15,50,39,5,56,69,47,65,14,21,0,19,50,67,8,100,11,10,11,9,21,6,7,0,Acoustic
8,7,19,7,1,13,6,3,35,1,12,9,6,2,7,5,15,13,9,13,17,18,27,3,12,2,4,22,13,0,21,2,4,2,9,3,3,1,0,Acoustic
13,13,44,17,11,7,18,2,36,0,36,7,13,7,24,16,40,32,23,12,52,9,76,3,9,2,30,30,65,9,34,1,6,30,4,24,1,0,0,Acoustic
9,7,12,3,1,5,6,0,18,2,3,8,10,1,4,2,11,7,1,5,15,10,18,2,9,0,6,19,16,1,11,0,2,1,3,3,2,1,0,Folk
12,12,27,6,2,15,8,2,25,1,15,9,10,5,7,7,16,26,3,15,26,22,33,9,11,0,16,30,29,4,34,3,4,4,6,4,4,2,0,Folk Rock
14,6,9,8,2,26,15,0,21,1,6,6,12,4,12,8,29,12,0,12,7,18,22,17,0,0,1,31,3,0,44,4,0,5,6,8,6,4,0,Rock
16,9,26,4,0,27,7,1,28,3,25,18,5,6,13,3,76,22,1,29,74,50,39,19,19,1,16,28,40,0,64,6,5,3,7,12,11,1,0,Classic Rock
6,4,13,25,1,31,6,1,34,1,24,12,7,6,4,6,19,20,0,19,38,17,38,9,16,0,5,28,46,0,32,3,1,1,3,16,7,5,0,Classic Rock
7,18,18,0,1,7,12,0,18,1,12,12,2,0,4,18,4,5,0,5,29,4,15,6,11,0,3,12,4,0,31,0,0,1,2,5,2,1,0,Classic Rock
15,14,20,6,3,12,7,0,34,3,8,7,13,7,8,7,16,10,0,17,16,12,38,5,10,0,8,19,29,6,34,4,5,6,2,10,7,7,0,Acoustic
26,7,23,2,0,19,51,0,29,0,9,7,38,2,23,19,6,6,0,15,32,11,20,4,2,0,1,9,4,0,38,1,4,1,2,10,1,0,0,Classic Rock
17,5,14,2,11,2,11,0,23,0,11,12,4,12,12,1,10,8,0,16,6,9,34,2,3,2,1,8,19,1,25,2,1,5,4,2,0,2,0,Acoustic
5,6,36,2,0,11,2,1,25,0,12,1,6,4,9,7,26,26,0,29,23,9,57,2,8,2,5,4,14,2,11,1,5,0,2,39,5,1,0,Classic Rock
22,8,28,1,1,12,13,4,14,4,14,12,26,10,11,7,27,12,2,29,40,17,44,4,6,1,9,23,32,3,39,4,5,8,2,12,2,8,0,Rock
5,6,15,13,0,4,8,0,7,0,0,5,3,1,9,3,8,15,0,14,10,5,18,6,1,0,2,12,5,0,9,2,0,0,0,3,2,3,0,Acoustic
35,11,57,11,2,23,16,2,44,3,22,20,12,10,21,32,32,20,3,27,49,29,50,13,15,1,11,47,40,2,57,8,8,7,11,23,5,5,1,Classic Rock
4,2,14,1,0,4,0,1,13,2,8,9,3,7,3,4,7,6,0,2,16,10,10,2,10,0,8,11,12,4,3,1,1,0,3,1,2,1,0,Rock
5,6,16,2,0,5,2,1,7,2,13,4,1,5,1,9,12,3,0,12,13,12,23,3,1,0,6,7,7,2,10,0,6,2,1,9,1,4,1,Rock
5,4,20,8,3,8,3,1,21,0,8,10,3,4,8,2,9,14,0,12,14,11,11,9,11,1,3,19,16,0,22,4,2,0,3,5,3,3,0,Folk Rock
49,25,85,25,9,44,36,5,90,10,67,27,62,24,31,33,86,58,7,63,108,56,113,41,37,1,26,86,90,11,116,12,26,5,9,69,10,9,0,Classic Rock
22,9,15,1,0,6,11,3,13,1,30,5,14,5,21,13,19,28,1,29,30,23,26,12,21,2,10,26,20,1,34,2,1,3,4,6,0,5,0,Rock
4,9,28,12,4,13,11,2,17,1,14,3,20,2,4,13,19,16,1,16,38,19,36,19,8,5,10,45,47,3,39,11,0,11,9,14,2,3,0,Country
20,31,87,21,6,34,38,10,88,3,58,29,43,18,16,20,41,71,37,76,89,52,84,12,49,0,16,72,76,6,110,4,14,10,16,35,6,13,0,Classic Rock
41,22,54,10,3,25,16,6,64,2,23,29,25,21,15,11,34,31,3,34,57,34,71,14,19,1,29,39,45,3,99,8,10,15,13,12,12,9,0,Rock
13,6,16,6,3,7,7,0,18,1,22,11,2,9,7,5,25,17,2,18,30,23,43,0,13,0,3,14,11,2,28,2,3,0,4,9,7,3,0,Rock
9,8,12,0,1,9,10,0,31,0,10,0,7,6,8,7,8,9,0,7,7,11,30,0,6,0,2,14,7,1,16,0,4,0,3,5,2,0,0,Acoustic
5,10,23,7,2,9,7,0,13,1,9,8,13,8,4,6,10,14,6,15,21,6,32,3,5,1,12,24,22,2,21,4,1,3,4,12,2,3,0,Classic Rock
20,38,27,9,4,28,19,4,23,3,38,11,17,10,11,34,26,26,1,24,54,55,64,11,12,3,23,29,22,2,70,4,2,11,5,15,5,3,0,Rock
2,5,66,3,0,13,6,0,5,0,3,4,4,3,58,6,77,6,1,15,86,7,13,2,3,0,6,12,11,3,27,1,0,8,1,58,2,2,0,Folk Rock
8,5,26,4,0,18,3,3,27,5,17,15,8,12,7,5,17,20,3,15,21,15,24,11,7,0,10,29,21,4,21,3,2,3,5,7,2,3,0,Rock
2,14,14,2,2,14,8,0,20,1,25,9,2,6,2,3,15,20,0,7,17,24,47,0,9,0,8,12,29,1,18,1,1,0,2,10,9,2,0,Folk
15,15,57,30,7,12,20,6,56,4,37,32,20,13,22,8,53,18,4,41,77,44,64,5,12,4,10,55,50,14,59,9,6,8,27,20,5,9,0,Classic Rock
15,14,65,10,2,13,11,7,38,3,46,18,22,13,10,11,33,26,5,22,54,17,49,3,18,0,19,56,60,3,41,2,5,4,15,18,4,4,0,Classic Rock
41,17,48,16,2,15,19,4,50,0,48,14,21,13,20,7,45,27,8,33,45,63,79,21,33,1,16,51,39,10,60,7,5,5,15,19,10,4,0,Rock
1,5,12,11,1,13,9,0,10,1,14,9,4,7,1,9,9,17,0,6,17,16,20,9,5,0,5,29,11,0,17,3,0,2,8,8,2,5,0,Rock
17,7,29,7,2,19,8,4,26,1,12,12,9,8,4,4,18,24,1,14,23,22,58,14,7,0,9,22,18,1,35,7,14,5,9,25,5,5,0,Classic Rock
5,8,11,1,2,2,7,0,24,2,18,12,13,10,0,4,2,17,7,10,9,16,25,5,2,1,1,22,17,0,18,1,4,8,8,6,7,0,0,Rock
18,10,51,11,2,22,7,2,57,3,28,19,16,17,13,11,24,18,7,30,32,23,49,5,6,1,8,32,33,5,38,3,2,4,10,20,4,3,1,Folk
10,10,18,7,1,10,10,4,19,0,12,5,9,9,9,5,18,13,5,24,24,12,43,5,12,0,9,23,19,2,26,3,6,13,3,11,5,10,0,Folk Rock
24,18,40,7,1,26,9,6,38,1,18,13,28,10,17,14,55,28,17,36,42,40,63,25,7,0,18,37,39,4,73,11,8,13,8,21,5,11,0,Rock
10,20,32,14,3,16,18,2,31,3,15,12,10,8,6,9,15,22,1,30,27,18,40,16,15,0,15,23,35,2,41,4,2,4,9,11,0,4,0,Classic Rock
6,3,4,1,3,5,3,3,3,0,6,1,2,4,3,1,3,3,1,5,4,5,11,2,1,1,2,5,5,3,11,0,3,1,2,4,1,2,0,Classic Rock
13,9,26,3,2,29,6,4,34,0,15,8,12,11,3,8,15,16,1,18,16,30,50,3,8,0,6,18,18,4,51,3,7,3,11,7,1,3,2,Classic Rock
6,4,13,7,8,21,6,1,36,0,24,5,5,4,5,6,22,29,0,12,25,14,45,12,10,2,8,27,30,1,47,1,3,1,5,11,2,2,0,Rock
7,15,43,6,2,17,12,6,26,3,23,21,23,12,9,6,24,28,3,19,30,28,58,7,9,2,10,34,35,6,34,2,5,2,11,10,3,5,0,Rock
19,3,13,14,0,3,2,0,31,0,10,17,10,4,15,4,27,8,0,5,19,13,43,1,4,0,8,14,19,7,32,0,2,0,2,19,1,0,0,Acoustic
12,5,9,3,3,3,3,0,16,0,5,8,2,2,0,9,17,5,0,5,16,8,21,6,3,0,2,12,10,0,29,2,1,6,3,6,3,0,0,Rock
7,11,27,3,1,7,4,1,7,0,13,7,12,10,24,3,16,15,1,28,17,18,47,5,12,15,13,17,15,0,14,2,4,0,6,9,3,4,0,Rock
12,7,27,16,3,22,10,1,24,1,18,16,9,3,16,15,43,26,3,16,39,26,36,17,15,1,7,41,20,2,39,4,5,3,19,10,1,7,0,Classic Rock
40,24,59,18,7,22,24,0,52,3,31,25,29,12,45,15,87,27,4,41,60,48,88,31,17,5,19,42,77,9,73,8,8,7,14,21,6,7,0,Classic Rock
20,6,23,4,0,7,9,0,14,0,16,8,10,7,17,7,13,17,0,15,16,15,40,5,18,0,13,14,30,4,23,0,4,11,7,18,7,3,0,Classic Rock
72,9,50,5,3,11,6,4,29,2,20,23,41,8,43,4,26,19,2,45,25,22,93,23,7,1,13,42,37,0,51,22,3,10,8,32,3,3,0,Classic Rock
8,12,42,10,1,22,24,5,46,4,17,23,14,13,10,10,26,14,2,19,37,18,51,7,12,2,7,24,22,2,29,12,6,4,12,17,6,2,0,Rock
4,5,10,2,0,11,2,1,22,2,7,7,6,7,9,4,10,9,0,7,11,5,16,2,3,0,2,13,19,2,22,2,10,1,2,4,2,3,0,Classic Rock
2,8,20,1,2,16,16,0,31,0,16,14,11,2,8,5,23,4,0,8,53,17,28,6,10,4,4,8,10,1,25,1,0,7,7,13,1,0,0,Rock
31,14,82,16,6,27,27,10,71,3,52,33,29,22,26,14,43,40,4,42,68,49,95,9,17,2,22,50,69,7,103,15,10,18,23,28,10,4,0,Classic Rock
13,6,19,7,1,12,8,0,21,3,9,9,9,3,3,2,20,12,0,16,14,25,40,5,12,0,11,16,20,0,26,2,3,1,4,8,5,3,0,Classic Rock
6,7,12,5,2,9,16,1,53,2,58,18,4,7,3,7,9,19,0,7,12,31,46,4,5,0,3,30,13,4,15,12,0,1,7,3,4,1,0,Rock
10,12,14,2,3,8,9,5,15,0,5,6,14,13,5,8,20,14,2,7,30,16,22,10,10,0,9,17,17,2,22,2,1,0,2,4,0,2,0,Pop
7,1,18,3,0,6,2,0,11,3,4,12,9,3,3,0,6,8,2,10,9,8,11,1,7,0,2,17,14,4,15,1,1,2,4,4,1,2,0,Classic Rock
3,7,16,3,4,11,3,1,18,0,5,8,13,8,4,3,20,4,0,17,23,9,32,7,6,0,6,11,19,0,17,0,3,5,17,8,0,0,0,Classic Rock
7,9,59,9,4,10,2,2,33,1,17,21,15,6,4,5,48,12,3,35,75,16,27,14,5,0,21,30,21,5,36,5,6,1,19,26,5,4,0,Rock
41,9,18,7,0,42,48,0,9,0,9,4,27,2,4,5,11,42,0,44,27,12,34,9,12,0,51,46,42,4,51,1,1,0,3,7,4,24,0,Classic Rock
14,24,70,12,3,27,10,3,30,5,28,16,37,18,8,21,48,36,12,50,73,35,69,11,16,2,26,42,62,11,64,3,4,13,12,14,6,18,5,Folk Rock
7,3,19,3,1,12,5,1,27,1,11,7,6,6,8,4,17,12,1,4,17,7,28,3,8,1,8,14,7,3,12,2,3,4,15,8,2,5,0,Rock
11,23,42,10,1,14,16,14,45,0,28,17,18,7,6,6,29,10,12,21,43,12,46,18,12,0,9,28,21,15,46,9,2,10,13,12,22,5,0,Folk
5,9,24,12,6,8,11,1,10,1,8,9,6,7,11,7,15,14,1,10,27,15,39,7,5,3,5,25,18,1,17,1,2,13,0,6,0,11,1,Folk Rock
13,1,26,7,4,13,9,0,18,0,7,7,7,5,5,8,19,10,0,17,25,11,32,6,6,0,3,21,22,4,25,3,4,3,4,9,1,1,0,Classic Rock
5,6,26,1,1,19,15,0,11,1,19,11,22,10,8,3,13,20,0,35,43,19,34,4,5,0,4,14,25,2,32,1,9,5,6,14,10,2,0,Folk Rock
14,9,12,2,5,12,4,3,27,0,13,3,12,11,4,7,27,9,0,6,21,12,23,10,7,0,3,25,20,0,36,6,1,2,6,17,2,3,0,Folk Rock
4,8,20,6,1,6,9,2,21,1,7,7,13,7,4,3,17,13,0,15,18,13,22,9,5,0,5,17,20,2,19,15,7,9,3,11,4,5,0,Classic Rock
20,15,19,16,5,39,32,1,27,6,10,26,19,7,11,8,12,16,11,26,48,20,52,7,25,2,16,53,18,12,60,2,2,15,15,13,4,1,0,Folk Rock
16,33,91,22,9,46,54,6,95,6,41,37,28,21,10,16,67,69,6,51,74,52,96,21,36,0,21,66,65,5,113,12,9,17,26,33,13,5,1,Classic Rock
4,8,20,2,1,14,2,1,16,6,15,8,15,7,8,1,23,9,2,16,20,9,21,12,6,0,9,12,25,3,21,4,3,0,14,9,0,1,0,Rock
42,14,26,10,12,11,8,2,32,0,10,34,36,4,34,6,10,0,2,12,30,11,72,6,7,4,8,22,6,2,57,0,0,0,0,10,4,6,0,Folk
12,5,13,2,0,12,5,0,9,3,9,11,2,2,2,3,14,8,0,0,16,13,19,10,7,0,2,16,13,0,31,3,0,4,2,2,0,0,0,Acoustic
3,8,3,12,8,2,0,1,31,0,7,2,2,1,2,17,2,14,2,12,33,4,15,2,20,0,17,17,2,0,4,1,0,1,4,2,0,1,0,Folk
25,19,44,9,8,19,11,1,50,5,28,20,9,11,12,6,48,21,0,25,30,28,67,11,4,2,14,37,43,4,63,6,6,9,13,22,14,2,0,Classic Rock
3,5,21,9,0,4,2,0,11,2,2,0,11,9,7,3,9,15,0,11,13,16,21,3,5,0,6,27,17,1,17,1,1,6,3,5,4,2,0,Classic Rock
37,18,116,31,10,54,24,9,85,5,39,30,35,41,26,20,65,62,8,60,95,41,106,21,25,3,47,92,89,10,102,16,9,14,17,25,8,20,1,Folk Rock
12,13,44,11,4,19,20,4,34,6,28,22,20,17,14,7,48,24,0,35,53,22,41,31,13,3,11,51,32,4,46,3,3,6,6,14,6,4,0,Folk Rock
14,12,23,5,5,14,8,3,17,0,9,9,5,7,8,2,40,9,0,7,24,26,43,3,9,3,11,19,25,4,25,2,1,4,6,12,1,5,0,Classic Rock
12,13,34,8,6,18,14,3,25,6,13,13,26,10,17,7,37,18,15,17,44,20,46,10,17,5,15,32,30,11,36,2,6,6,8,5,5,5,0,Acoustic
19,8,27,4,5,10,14,1,26,6,4,11,16,9,2,4,14,22,1,22,29,12,39,5,16,0,9,19,11,2,31,3,3,3,20,6,1,6,0,Rock
49,18,24,1,0,9,21,2,18,1,10,12,19,7,7,3,9,13,5,13,21,18,72,1,3,0,3,7,15,2,24,0,3,4,9,28,2,2,0,Classic Rock
7,30,19,15,1,14,12,1,65,0,12,8,14,5,14,3,16,8,0,14,47,19,17,13,5,0,7,25,29,0,21,13,4,4,24,10,5,0,0,Rock
50,41,116,27,12,53,49,9,103,7,60,59,47,28,21,25,70,56,12,75,102,76,144,10,23,3,54,104,81,7,127,15,22,28,20,39,7,13,0,Folk Rock
19,41,26,5,6,10,12,1,72,2,6,16,18,10,19,23,23,51,0,26,26,11,67,5,6,2,3,22,28,5,34,4,7,3,5,6,3,2,0,Folk Rock
13,12,49,7,2,6,12,1,58,6,36,17,11,16,13,5,37,41,1,54,40,23,52,19,15,0,22,49,41,4,39,5,9,3,13,17,2,16,0,Classic Rock
16,1,26,2,1,14,2,1,18,0,12,15,8,7,7,6,20,15,1,11,13,27,23,5,4,1,6,22,25,3,40,1,0,5,7,3,0,2,0,Rock
3,9,12,3,0,8,4,0,12,1,23,13,9,14,5,8,15,18,0,16,36,21,25,5,14,3,6,18,20,6,24,2,1,4,4,14,5,0,0,Rock
29,13,23,5,2,19,15,0,36,0,12,9,10,6,17,26,25,7,0,23,33,18,31,13,11,1,4,18,20,5,19,4,3,10,4,14,0,2,0,Classic Rock
24,17,19,4,2,2,38,5,24,0,13,17,17,7,8,14,20,34,3,20,38,22,31,2,6,0,3,15,8,17,27,0,6,20,2,11,11,2,0,Rock
35,26,20,6,1,1,8,2,15,0,28,4,6,2,43,2,18,14,0,12,28,7,35,2,15,7,25,15,39,1,83,0,3,1,6,10,1,2,0,Acoustic
12,8,28,11,2,8,8,4,41,1,24,12,10,12,13,5,16,9,1,25,18,17,22,4,1,0,5,23,30,2,52,5,3,7,9,12,2,0,0,Folk Rock
7,10,24,9,4,14,3,1,22,0,8,15,7,5,5,4,5,19,1,12,25,5,42,7,7,1,8,27,24,1,25,5,0,3,3,6,1,0,0,Rock
15,12,44,12,11,20,11,1,44,1,20,13,11,15,15,10,36,40,5,41,55,28,58,19,26,0,22,41,33,6,56,7,5,14,11,5,17,13,0,Classic Rock
24,5,31,3,3,9,8,0,20,0,7,8,18,7,11,8,16,19,4,11,23,28,43,3,12,0,4,21,10,2,33,3,2,0,3,7,3,3,0,Blues
10,27,24,9,4,14,5,2,30,4,11,21,11,5,5,5,23,10,6,27,29,18,56,2,9,0,14,22,29,1,47,2,0,8,2,14,2,6,0,Classic Rock
8,3,8,5,4,3,4,0,6,0,4,2,0,0,4,0,1,4,0,8,8,4,17,0,0,0,2,2,1,7,2,4,0,0,2,1,0,4,0,Classic Rock
12,8,28,11,2,8,8,4,41,1,24,12,10,12,13,5,16,9,1,25,18,17,22,4,1,0,5,23,30,2,52,5,3,7,9,12,2,0,0,Folk Rock
5,9,21,6,0,17,0,10,25,5,14,15,9,6,3,9,4,12,1,11,31,10,16,5,4,0,13,17,12,0,25,5,2,2,0,9,3,5,0,Classic Rock
11,11,39,4,0,8,2,1,18,0,20,14,19,13,13,6,18,6,1,21,27,13,48,11,11,0,5,27,16,2,44,5,3,4,13,12,1,5,0,Rock
2,3,3,2,7,10,6,0,11,0,7,6,3,4,5,1,16,7,1,7,7,1,14,6,3,0,2,6,9,1,14,4,1,8,12,5,4,2,0,Classic Rock
16,6,12,16,0,7,19,2,12,1,3,8,10,0,12,9,15,10,2,3,13,10,32,23,13,0,2,19,7,0,26,9,3,1,4,5,3,0,0,Classic Rock
12,3,17,6,11,8,8,0,13,2,18,8,15,6,8,15,29,15,2,18,25,27,44,9,15,0,8,17,18,3,35,4,3,1,4,15,0,5,0,Folk Rock
18,12,36,4,14,18,30,1,23,1,25,18,26,5,27,5,37,36,0,29,39,31,69,7,15,6,15,39,23,9,70,9,14,4,13,26,10,9,0,Classic Rock
32,29,53,17,12,20,18,3,94,3,47,34,22,10,17,19,38,48,2,46,62,40,72,11,20,2,26,59,53,2,79,7,5,9,14,34,4,4,0,Acoustic
11,11,42,12,5,19,22,2,47,7,26,16,14,18,11,3,31,26,5,34,44,35,42,13,14,3,10,45,43,3,46,5,7,7,5,6,6,4,0,Acoustic
13,16,27,31,9,9,28,0,51,1,17,2,17,10,17,9,27,35,9,28,59,13,54,7,14,0,15,58,9,2,31,0,4,2,8,13,1,2,0,Classic Rock
10,12,19,11,19,30,14,2,53,2,30,22,7,8,5,10,33,27,2,32,49,32,60,15,15,2,8,24,22,3,51,7,3,5,8,26,3,4,0,Classic Rock
2,18,20,6,6,7,16,0,32,0,22,11,12,6,9,7,16,21,7,16,27,15,37,3,16,0,7,30,26,1,42,1,6,0,3,6,4,0,0,Classic Rock
14,16,46,14,2,44,10,16,69,3,15,26,44,36,19,8,38,24,18,36,74,39,62,25,10,3,12,35,50,1,54,3,5,4,13,11,6,1,1,Rock
10,7,35,2,1,2,8,0,17,0,7,3,7,5,2,2,2,11,0,2,14,8,22,1,7,1,7,26,35,4,60,5,3,6,5,8,3,1,0,Rock
22,19,57,14,9,19,10,5,44,2,6,4,18,10,19,16,15,11,0,16,32,20,57,22,16,0,13,26,10,2,25,7,3,0,2,18,0,7,0,Rock
5,6,13,6,6,8,7,2,18,0,10,5,3,2,7,1,29,14,5,11,20,12,19,6,6,0,8,17,23,2,21,0,1,3,4,9,1,2,0,Classic Rock
7,6,11,1,0,7,4,3,10,0,4,7,10,5,8,4,17,7,6,12,22,10,18,3,2,2,9,9,6,2,16,0,1,13,1,8,3,1,0,Classic Rock
7,7,36,15,7,19,6,0,47,1,28,28,7,15,22,8,17,19,9,15,34,12,47,8,7,3,8,32,22,1,33,0,10,1,17,6,10,2,0,Classic Rock
26,5,29,31,3,10,9,1,36,1,11,10,12,36,6,7,44,21,1,17,18,14,54,4,5,0,6,66,15,18,47,2,3,0,12,11,7,3,0,Rock
13,1,7,5,0,5,12,1,15,0,17,10,8,9,6,5,13,15,1,6,28,13,8,4,10,0,2,6,5,1,17,4,0,2,3,7,3,0,0,Rock
22,11,29,7,2,9,9,3,23,5,6,12,13,7,6,5,13,13,0,21,16,7,45,6,8,0,11,17,26,2,46,3,5,6,5,26,6,4,0,Folk Rock
34,16,53,19,3,17,21,2,47,1,32,18,18,24,25,16,47,45,3,51,45,40,75,19,18,0,15,46,47,10,69,6,10,10,8,27,7,5,0,Jazz
24,13,44,18,5,22,13,2,35,2,27,17,27,12,14,6,58,37,3,30,42,25,63,38,11,1,21,43,57,3,65,15,3,9,13,20,5,9,0,Classic Rock
8,9,27,27,5,22,12,2,49,1,29,12,10,7,6,10,42,20,2,24,47,19,51,19,15,0,8,40,33,2,36,3,1,2,3,39,5,1,0,Country
4,3,16,5,5,11,9,1,18,2,17,5,9,5,0,8,22,11,0,14,19,9,19,14,5,0,6,22,20,2,30,2,7,8,6,7,9,0,0,Folk
11,8,16,11,0,8,5,1,10,0,2,6,4,2,2,4,13,14,0,17,23,14,23,3,18,0,2,15,27,1,21,0,1,1,5,5,1,8,0,Classic Rock
12,26,35,5,0,8,22,0,27,1,5,14,17,5,3,6,23,13,0,23,41,4,20,4,17,2,8,45,10,7,46,7,2,0,12,15,0,0,0,Classic Rock
3,1,10,0,3,3,2,0,6,0,9,4,4,4,1,1,2,5,0,3,17,6,10,1,1,0,1,1,5,0,13,1,1,1,8,7,1,1,0,Classic Rock
11,17,42,6,4,18,44,4,32,2,14,13,32,10,8,11,41,38,3,20,40,26,52,25,15,1,13,28,45,3,49,9,2,6,14,15,2,6,1,Rock
7,6,26,28,7,4,5,1,47,0,6,6,8,1,8,4,10,7,15,18,35,4,24,1,3,0,5,48,11,2,20,3,2,3,3,8,3,6,0,Rock
6,1,8,3,0,3,0,0,2,0,2,1,2,1,3,6,0,2,0,0,4,0,6,1,1,0,0,1,1,0,1,0,0,2,5,1,2,0,0,Classic Rock
15,28,95,15,2,40,22,7,51,12,43,36,25,16,11,12,70,67,11,61,80,57,66,24,20,3,29,77,75,10,106,18,3,16,19,17,11,11,1,Classic Rock
8,2,32,4,5,11,14,0,50,1,22,12,10,1,7,12,23,27,0,26,27,13,31,3,21,0,24,32,31,0,23,5,3,1,12,8,0,10,0,Rock
17,29,23,5,2,20,16,0,47,1,27,17,8,3,6,6,15,6,2,20,19,18,55,5,5,0,12,21,24,1,39,1,1,7,8,10,3,5,0,Rock
21,18,66,12,5,43,17,6,55,2,21,50,26,28,17,16,45,25,19,50,61,48,91,19,44,0,19,40,59,7,84,4,12,18,4,22,7,1,0,Rock
6,31,32,5,2,15,11,4,27,9,26,6,6,2,6,25,15,7,0,14,23,9,34,4,16,0,15,28,43,7,52,0,2,12,1,15,1,6,0,Holiday
6,8,28,6,0,9,25,2,17,0,7,5,18,4,2,6,14,25,0,24,20,22,21,7,12,0,4,17,5,8,12,1,5,1,9,9,4,6,0,Rock
8,27,25,4,3,12,7,3,49,2,23,5,30,27,11,6,15,27,3,40,43,15,49,2,32,1,13,22,29,2,52,2,8,4,4,9,2,3,0,Classic Rock
12,37,39,12,4,22,35,2,68,11,31,25,41,12,23,25,34,35,12,46,77,27,38,6,24,0,15,41,37,5,39,1,11,5,26,20,0,4,0,Acoustic
26,15,18,9,0,9,12,1,31,0,16,16,11,6,5,8,19,17,2,23,13,26,54,5,7,0,3,27,27,3,43,1,7,10,5,9,14,3,0,Rock
16,8,10,8,2,13,15,0,17,1,11,3,12,4,4,8,18,22,8,22,27,13,36,12,12,0,10,15,14,2,15,3,1,1,4,11,3,1,0,Folk Rock
8,12,33,11,5,37,7,3,53,0,19,89,34,16,7,11,23,16,9,25,37,14,165,2,8,1,15,47,37,1,129,3,9,10,3,34,5,7,0,Acoustic
0,3,11,4,0,5,0,1,8,0,10,5,11,2,8,1,6,3,3,10,18,10,14,2,17,0,2,9,8,2,27,0,1,4,9,6,6,3,0,Classic Rock
9,19,21,9,3,37,14,3,31,0,25,19,15,12,9,5,28,23,2,39,47,23,49,4,9,2,11,42,31,1,54,1,4,5,7,17,9,1,0,Classic Rock
2,0,14,2,1,10,10,1,21,3,18,10,9,6,3,1,19,14,0,7,18,19,27,1,7,0,5,22,8,1,26,0,2,4,5,8,3,1,0,Rock
10,9,41,21,0,30,8,0,17,1,21,3,2,13,15,7,25,17,0,24,61,30,55,2,10,0,2,10,5,4,32,0,0,5,4,26,0,3,0,Classic Rock
4,8,12,2,2,8,1,0,9,2,2,4,5,3,2,2,11,7,1,14,10,14,24,4,3,0,2,8,9,2,17,1,5,0,0,6,0,1,0,Classic Rock
15,22,64,18,6,25,34,6,53,10,33,33,25,24,8,13,63,42,3,37,61,29,78,26,23,1,20,62,58,7,62,8,6,10,13,20,5,12,0,Classic Rock
46,14,66,15,12,21,20,6,54,5,23,23,22,13,29,10,57,41,3,45,49,36,94,20,13,0,19,58,41,7,66,14,9,6,17,21,2,5,0,Rock
16,15,34,12,3,17,18,3,38,4,22,18,23,14,6,4,30,12,3,33,41,23,49,7,20,9,17,35,33,4,34,7,3,4,9,12,1,3,0,Classic Rock
36,26,28,6,3,10,22,5,45,2,25,24,20,14,22,11,38,27,6,40,50,28,69,8,13,3,22,25,28,2,72,4,12,9,5,19,4,9,0,Folk Rock
10,4,7,5,0,6,3,2,11,2,14,1,5,2,21,3,30,2,3,7,14,16,22,9,15,1,6,11,10,1,22,1,1,3,6,3,1,1,0,Classic Rock
4,5,19,8,0,18,4,1,24,3,18,13,6,9,14,11,22,17,2,16,48,5,25,2,11,0,8,27,7,5,40,1,4,1,8,10,1,2,0,Classic Rock
15,5,22,2,6,10,20,0,14,2,7,8,15,5,8,9,15,17,0,15,25,9,28,2,7,3,5,21,22,2,28,4,3,8,4,3,2,2,0,Rock
11,13,45,13,1,21,15,8,34,2,23,23,13,9,8,7,15,20,3,16,39,13,45,3,6,0,11,24,38,0,50,8,3,6,31,13,4,3,0,Classic Rock
73,17,65,40,1,28,44,7,62,2,32,37,51,5,27,6,34,57,3,42,60,99,80,14,6,0,12,60,77,3,39,2,2,2,37,19,30,3,0,Rock
5,1,15,10,2,32,10,3,44,1,14,2,4,20,3,7,43,23,1,22,33,17,22,25,3,0,0,20,16,1,7,0,3,0,9,6,3,5,0,Acoustic
5,29,39,3,1,10,5,4,27,1,15,6,10,2,8,12,42,20,3,31,44,11,30,26,30,0,10,21,67,3,57,0,5,2,7,12,8,0,0,Classic Rock
5,1,13,0,0,9,2,1,17,1,21,6,19,1,14,3,1,13,0,3,22,5,19,0,7,0,17,9,13,1,17,0,4,2,10,5,1,0,0,Rock
6,4,17,9,1,5,5,2,21,1,8,6,8,5,4,2,25,19,0,14,22,17,28,11,11,0,10,22,13,2,19,5,2,3,9,6,0,2,0,Folk Rock
13,5,9,5,0,7,15,2,11,0,10,7,11,0,6,2,11,22,0,12,9,9,23,6,3,0,2,13,11,0,26,3,2,1,10,5,4,0,0,Rock
19,10,46,21,7,17,22,4,33,3,29,42,29,12,14,8,39,34,23,27,37,25,82,8,13,0,15,46,62,2,81,1,5,15,2,23,3,6,0,Rock
16,27,44,15,17,19,34,2,52,12,40,16,16,13,18,6,25,33,0,36,54,14,73,6,16,0,15,58,36,6,43,3,4,1,14,20,1,6,0,Acoustic
4,6,18,7,4,15,17,3,19,4,20,6,3,7,3,3,23,18,2,8,31,11,22,20,9,0,12,38,19,3,19,2,1,4,1,10,2,2,0,Classic Rock
19,4,26,17,1,8,16,6,26,2,21,9,19,15,12,2,25,32,10,18,31,20,33,8,5,2,9,29,14,3,28,5,2,5,15,14,4,8,0,Folk Rock
4,6,19,0,3,4,1,0,14,0,5,7,12,2,2,5,7,3,0,7,13,8,17,2,4,0,2,14,6,1,19,7,2,6,8,12,1,1,0,Rock
10,14,13,7,5,7,12,6,21,10,21,21,9,9,9,18,23,11,0,19,28,2,31,8,10,2,7,27,20,0,29,0,2,3,15,12,0,0,0,Acoustic
13,44,47,18,1,14,18,3,40,2,18,30,45,21,22,19,82,53,11,20,57,74,75,48,21,0,38,40,70,4,59,2,2,2,6,16,2,5,0,Folk Rock
23,11,67,4,4,14,17,2,105,15,26,14,22,2,16,8,35,87,1,21,59,30,57,15,15,4,15,42,31,5,60,7,6,2,10,37,0,6,0,Classic Rock
3,3,13,9,1,8,1,1,15,1,22,3,6,2,2,6,27,5,0,11,18,15,17,15,2,1,11,18,22,4,11,3,2,1,4,9,3,1,0,Rock
0,8,12,11,0,9,15,1,20,1,10,7,38,1,7,5,12,18,0,11,38,6,15,7,2,0,0,13,29,2,27,1,0,1,3,7,2,1,0,Country
23,23,58,15,10,20,13,1,61,9,37,21,12,26,10,17,61,37,1,33,67,47,51,33,16,0,20,48,45,7,50,13,3,2,16,26,4,2,0,Classic Rock
9,31,35,1,6,1,4,1,11,4,7,7,4,1,5,6,17,29,0,23,34,4,38,12,15,0,16,24,16,2,22,7,9,3,3,2,16,0,0,Rock
9,23,54,10,2,19,8,3,26,1,39,8,11,25,10,3,31,25,12,29,50,20,50,17,11,0,17,36,43,4,48,3,1,6,8,13,3,3,2,Classic Rock
5,4,16,7,1,7,4,0,14,1,5,3,10,3,0,2,18,10,1,11,17,6,20,7,9,1,2,21,19,1,37,6,2,6,5,6,0,3,0,Rock
5,21,12,19,0,17,22,0,44,0,7,12,14,2,29,11,9,24,1,34,29,6,46,12,4,1,3,19,6,0,35,1,19,3,6,12,2,6,0,Folk
5,3,41,2,6,6,4,1,9,13,24,22,8,1,11,1,17,8,1,21,17,22,26,1,4,0,4,8,12,0,30,1,1,1,19,15,4,0,0,Rock
13,15,31,5,1,14,17,3,21,0,14,4,11,6,12,1,38,21,1,28,43,23,34,14,6,1,4,28,26,2,45,7,7,3,3,14,1,9,0,Rock
10,10,40,16,1,4,9,3,33,1,10,9,9,2,11,6,33,16,1,21,14,18,37,17,7,0,10,11,27,3,44,5,5,0,3,22,1,2,0,Classic Rock
11,10,17,6,4,14,33,3,27,1,30,14,21,6,4,12,29,23,1,24,35,15,28,9,10,0,6,23,20,1,47,5,5,2,10,11,2,3,0,Rock
31,34,64,42,5,31,9,6,76,1,25,32,39,10,9,36,63,68,2,55,42,36,123,40,25,0,10,97,39,3,52,4,1,2,7,54,7,17,0,Classic Rock
7,8,25,4,10,19,12,4,34,9,11,8,17,9,5,4,31,17,1,22,31,17,34,9,12,0,17,28,28,14,26,4,1,3,2,13,2,6,0,Classic Rock
0,3,8,3,0,6,10,0,21,0,16,6,5,3,10,0,30,22,0,6,11,18,23,4,8,6,1,16,28,5,12,6,2,6,4,9,3,1,0,Rock
9,10,17,4,0,8,9,1,7,1,13,4,6,3,5,9,12,14,5,13,28,21,22,6,11,1,11,6,10,0,23,0,0,7,2,9,7,2,0,Electric Blues
30,6,24,13,2,0,2,0,14,0,10,0,1,2,3,10,5,5,1,34,5,9,54,1,0,0,1,15,1,1,6,0,1,2,10,0,1,1,0,Rock
20,21,58,19,19,28,17,0,68,1,35,20,18,37,25,16,60,25,3,40,88,27,67,39,40,0,15,62,43,3,63,0,1,4,5,17,1,5,0,Country
19,12,17,6,0,7,11,10,23,2,9,16,11,11,5,3,42,19,0,20,35,11,29,10,22,0,10,26,29,2,32,2,6,1,13,24,3,0,0,Blues Rock
5,9,18,3,3,14,4,3,12,0,6,2,11,6,7,4,7,13,1,7,17,12,24,0,13,0,5,22,24,1,29,0,3,1,1,7,2,6,0,Classic Rock
17,21,29,11,6,8,21,7,37,1,33,19,22,12,10,8,33,33,4,32,26,16,64,2,11,4,15,40,53,8,57,5,3,5,17,13,5,4,0,Rock
16,13,33,3,2,13,7,2,22,1,20,13,15,10,7,7,15,30,2,17,31,17,37,4,11,0,11,20,28,1,48,0,1,8,9,20,4,4,1,Folk Rock
0,1,6,0,1,4,1,0,6,0,6,3,3,0,2,8,9,4,1,4,8,3,10,3,3,0,0,1,3,0,4,4,2,2,8,2,1,2,0,Rock
8,1,44,3,5,8,42,2,15,0,14,7,7,6,5,6,19,18,2,44,22,6,48,15,42,1,16,51,16,1,21,8,1,4,11,2,3,2,0,Classic Rock
16,4,9,3,2,13,9,3,24,2,30,24,13,4,10,20,45,54,1,24,40,47,56,3,7,1,24,37,28,2,45,1,3,8,3,9,1,19,0,Rock
14,12,64,16,7,15,14,10,56,1,35,29,25,20,14,10,41,32,7,30,54,30,60,24,15,1,25,44,48,14,57,6,5,11,14,12,4,2,1,Classic Rock
33,10,18,5,7,8,4,1,29,0,39,8,2,9,7,18,9,26,0,12,42,2,51,1,5,0,13,20,18,0,54,0,9,2,3,8,14,4,0,Rock
14,20,63,8,8,25,10,3,67,7,37,25,19,20,14,16,34,27,10,24,54,31,67,15,20,1,18,42,45,8,53,5,10,11,14,23,7,6,0,Rock
27,10,73,25,2,28,29,0,60,2,16,16,25,13,9,9,18,16,4,28,59,27,67,8,11,0,14,56,34,4,68,5,3,5,9,17,7,4,0,Rock
30,19,83,11,2,33,32,5,72,1,51,13,24,23,15,12,48,47,3,53,74,70,84,11,37,1,34,48,83,8,85,5,5,17,7,20,6,1,0,Folk Rock
13,12,22,21,2,7,7,0,27,6,29,10,12,7,13,6,24,27,1,21,34,16,54,10,7,0,9,40,38,2,37,3,0,3,3,8,15,0,0,Classic Rock
48,8,41,3,1,16,13,1,68,4,16,14,16,12,4,15,23,42,1,23,33,18,70,5,9,1,15,20,17,24,66,0,3,8,25,11,3,6,0,Rock
15,9,26,8,1,14,6,2,42,1,12,2,13,8,4,3,22,18,1,28,26,11,39,4,18,3,6,19,22,3,38,0,5,3,3,12,4,10,0,Rock
12,6,15,3,0,4,5,4,25,0,31,7,17,2,3,2,14,10,9,10,29,21,30,4,9,0,5,12,18,6,36,0,0,2,2,7,0,2,0,Classic Rock
6,3,33,1,14,5,8,0,35,1,33,7,9,5,9,7,29,15,1,14,25,28,66,13,4,1,5,13,18,2,31,17,10,9,10,16,0,14,0,Folk Rock
1,4,16,5,6,9,3,3,10,1,7,6,4,9,6,1,11,11,2,12,15,8,21,6,5,0,5,10,11,0,19,4,2,5,3,9,4,2,1,Folk Rock
3,11,22,3,2,5,3,2,8,2,15,30,36,17,3,2,6,4,3,4,15,21,8,18,3,1,2,12,18,3,20,1,1,3,13,11,12,11,0,Classic Rock
6,5,15,5,0,6,2,0,21,3,9,0,8,18,11,1,11,8,0,4,31,10,15,4,2,0,3,21,7,0,13,0,2,19,5,0,4,0,0,Classic Rock
4,3,18,10,3,9,6,1,12,0,3,10,9,10,7,3,18,9,1,11,28,17,16,4,11,0,5,22,20,4,31,0,1,8,1,6,4,1,0,Classic Rock
7,3,20,7,0,4,5,0,38,3,34,4,5,6,3,8,13,30,3,9,11,7,10,6,7,0,6,38,15,2,15,4,0,0,1,5,3,2,0,Rock
6,15,15,4,4,2,1,1,19,0,26,6,11,7,23,5,15,6,1,18,35,7,32,6,27,0,5,11,12,5,48,0,0,1,3,19,1,2,0,Rock
22,11,21,4,5,4,31,4,17,2,20,4,15,8,7,8,10,12,0,24,27,6,23,1,10,0,11,21,11,3,37,0,7,8,6,3,12,3,0,Rock
6,9,21,16,2,11,4,1,30,1,8,6,8,9,8,4,15,5,0,13,30,1,23,17,7,0,8,16,29,2,31,1,4,5,1,2,0,1,0,Classic Rock
1,5,24,2,0,5,9,0,17,1,20,14,12,2,7,4,24,11,1,9,17,9,25,16,6,0,10,9,25,0,32,12,0,7,9,4,4,1,0,Rock
25,0,15,3,0,15,6,0,23,1,34,1,12,1,9,1,7,29,10,12,33,18,30,5,4,0,1,6,10,0,15,0,0,0,0,35,0,16,0,Acoustic
22,3,15,2,1,21,6,4,17,0,12,3,13,8,15,10,13,18,1,16,16,18,40,5,23,3,7,28,10,1,33,0,1,4,0,10,0,5,0,Classic Rock
6,3,14,7,4,12,9,5,16,0,9,2,8,5,3,1,4,8,1,12,13,7,32,1,4,2,5,21,17,1,20,3,2,5,0,5,3,0,0,Classic Rock
10,4,15,4,4,2,2,2,17,2,14,8,5,4,5,2,10,9,0,8,12,15,20,5,3,2,8,15,17,3,18,2,1,1,3,5,2,1,0,Folk Rock
13,5,31,2,1,10,16,1,22,0,10,3,13,1,3,6,35,27,0,17,25,15,52,2,9,0,11,12,23,11,31,2,6,0,8,15,1,5,0,Classic Rock
3,2,11,3,0,31,4,0,13,0,3,1,3,1,2,4,12,8,0,4,15,12,31,6,10,0,1,10,12,8,35,2,4,8,2,10,0,0,0,Rock
3,9,13,4,4,2,5,4,21,1,9,8,11,4,3,9,14,10,1,11,18,8,26,3,16,0,3,22,15,0,23,3,2,2,4,4,3,0,0,Rock
4,10,39,18,0,11,11,1,28,2,22,12,16,18,6,2,23,27,1,10,67,13,22,3,7,0,13,38,40,2,37,2,0,3,14,14,1,4,2,Classic Rock
6,16,63,1,10,20,20,0,29,23,30,20,24,10,6,20,15,28,0,13,52,26,64,0,11,1,5,37,23,1,63,1,0,16,26,16,0,0,0,Folk
2,5,16,6,1,8,6,1,21,1,8,4,15,7,6,6,17,11,2,14,21,18,22,11,12,0,2,20,7,1,14,4,6,3,9,9,4,0,0,Classic Rock
19,11,33,10,3,11,12,1,24,6,16,13,14,14,19,7,24,24,4,27,29,19,40,11,11,1,11,25,31,2,52,3,7,10,14,5,5,5,0,Classic Rock
20,14,56,3,2,5,10,2,16,4,25,16,10,4,33,6,13,30,0,21,61,22,35,3,13,0,4,12,38,11,42,3,10,3,24,20,6,6,0,Rock
6,7,105,4,3,6,40,3,16,2,10,13,7,5,7,2,16,10,2,13,54,7,40,4,6,0,6,56,17,5,59,5,5,7,10,4,5,0,0,Rock
1,9,6,3,4,9,6,0,16,2,20,11,9,6,3,4,13,18,1,5,13,14,28,3,6,0,4,26,8,4,16,3,2,3,5,8,1,3,0,Classic Rock
20,10,7,3,2,20,5,3,23,0,15,5,14,11,15,3,20,8,3,12,13,15,31,1,5,2,12,24,27,1,59,4,3,6,6,13,0,1,0,Classic Rock
17,2,40,1,8,16,11,0,12,7,16,5,3,1,10,4,51,32,6,39,24,31,43,13,19,2,9,11,17,2,33,12,1,8,7,23,10,7,0,Classic Rock
31,12,23,6,1,20,23,2,41,0,23,13,14,10,36,9,45,30,2,32,56,23,60,22,64,0,10,28,46,0,62,9,2,2,29,11,1,0,1,Rock
5,2,13,8,0,18,17,3,13,0,10,9,17,6,2,7,20,16,0,17,23,15,23,10,9,0,8,27,20,1,36,1,0,3,5,9,5,2,0,Folk Rock
9,12,17,13,5,22,8,4,38,4,13,16,14,8,13,11,18,16,8,20,24,5,42,4,15,1,7,33,27,5,22,2,4,2,11,4,1,4,0,Country
14,10,28,8,4,12,9,1,23,2,19,4,7,5,4,4,13,14,3,15,23,10,40,4,8,2,8,26,22,0,39,1,4,3,7,14,2,4,0,Acoustic
18,20,52,35,7,15,19,3,70,5,41,37,43,7,14,17,37,33,3,71,81,32,70,41,37,1,9,81,49,15,65,5,18,15,17,56,13,3,0,Folk Rock
8,6,14,7,5,10,6,0,21,0,11,10,14,8,9,6,17,7,3,12,25,16,30,9,11,0,4,26,15,5,20,2,4,0,2,10,0,2,0,Country
12,32,55,17,9,24,20,2,68,5,53,19,23,27,9,13,47,64,14,46,74,33,68,29,24,4,31,69,87,2,82,11,5,18,9,25,4,4,0,Folk Rock
17,18,40,11,6,9,19,2,66,2,21,12,38,16,10,15,39,29,2,31,35,37,49,11,5,1,10,32,45,3,62,5,6,8,9,22,5,10,0,Acoustic
8,7,24,8,1,8,2,1,16,3,18,9,10,12,5,3,11,15,1,12,11,10,36,5,3,1,6,26,18,1,33,6,0,13,10,10,1,1,0,Folk Rock
10,9,13,3,5,16,3,1,12,4,17,13,13,10,10,7,32,11,1,12,27,12,32,7,11,0,11,16,31,3,47,3,1,2,11,7,2,4,0,Classic Rock
24,16,35,7,9,3,4,1,27,8,13,13,10,5,2,4,10,9,0,15,34,10,58,6,13,0,16,22,29,4,52,2,9,2,20,27,9,3,0,Rock
9,4,15,3,0,4,4,3,24,0,8,6,5,6,6,5,17,13,0,5,20,14,21,2,8,0,10,13,16,1,20,1,1,7,7,7,5,3,0,Folk
34,14,23,14,2,10,7,1,36,0,17,4,19,3,19,12,27,22,0,20,33,18,71,1,13,0,20,32,16,0,36,1,3,0,0,25,10,9,0,Acoustic
10,9,33,6,0,7,6,3,18,3,8,17,16,7,11,6,37,18,8,24,34,21,29,19,14,2,9,30,25,4,31,1,7,3,7,11,4,4,1,Classic Rock
14,14,33,24,5,29,20,3,102,5,23,16,53,16,35,11,20,7,6,23,66,26,45,1,47,3,18,45,18,3,43,2,10,4,9,18,2,11,0,Classic Rock
25,18,31,8,1,9,7,2,23,3,13,6,9,7,13,15,27,25,0,33,24,20,32,9,3,0,11,25,31,1,32,4,1,3,11,10,3,2,0,Folk Rock
14,26,61,10,10,32,13,4,90,2,29,21,61,19,16,14,35,48,5,53,66,58,44,16,21,4,28,42,70,8,57,9,21,3,7,22,6,8,1,Folk Rock
12,3,31,2,1,10,5,0,8,0,6,5,15,3,0,35,20,4,0,16,10,30,25,2,2,1,6,25,13,1,22,0,3,0,0,4,9,0,0,Rock
17,19,26,10,2,23,11,6,47,3,23,15,28,16,18,6,42,19,2,28,39,22,51,27,17,0,7,42,40,2,57,5,7,9,12,22,3,2,0,Classic Rock
3,6,24,11,0,4,4,1,20,2,6,5,3,0,5,5,7,6,2,11,18,8,14,6,8,3,4,7,11,1,10,0,2,3,10,5,3,0,0,Country Rock
24,9,46,9,4,14,31,1,42,2,39,16,17,11,17,5,44,22,5,26,46,27,58,3,7,1,8,26,26,3,50,5,5,1,12,26,5,8,0,Country
12,2,5,2,0,7,10,0,6,0,4,3,7,4,7,0,9,5,0,6,11,3,18,2,3,0,1,7,4,5,17,0,0,6,0,4,0,0,0,Country
6,5,12,14,3,6,4,1,14,0,12,8,8,11,7,5,8,5,0,10,23,8,13,3,3,0,3,20,5,1,24,1,2,1,8,4,2,1,0,Folk Rock
13,14,50,6,11,11,9,8,41,1,17,24,8,20,13,11,33,21,5,23,32,35,27,17,15,0,17,29,36,2,41,7,1,7,3,8,10,4,1,Jazz
8,4,31,11,5,8,8,0,24,2,22,13,14,6,10,13,29,32,0,28,32,23,33,7,7,0,14,33,21,7,29,6,11,4,11,21,6,1,0,Classic Rock
26,2,9,1,2,8,5,1,11,24,5,29,10,25,1,5,4,9,0,7,12,8,13,0,3,0,3,11,6,1,14,4,0,0,2,4,0,2,0,Classic Rock
16,2,17,6,0,15,8,0,16,1,3,5,9,14,3,3,18,6,2,10,26,8,19,8,11,0,10,26,15,3,25,1,1,3,5,8,0,3,0,Classic Rock
16,6,15,1,0,19,15,3,18,0,10,2,24,19,3,0,19,19,1,27,22,5,40,1,0,0,6,25,19,2,37,0,4,1,1,9,0,4,0,Jazz
36,3,23,8,4,8,9,0,18,4,20,7,6,15,15,4,7,8,1,10,13,25,52,2,8,2,3,20,22,4,27,0,3,5,5,7,8,6,0,Rock
3,3,5,4,2,6,6,0,20,2,1,3,8,4,2,1,15,3,0,7,10,1,14,4,4,0,1,13,7,1,14,2,12,5,3,15,0,0,0,Classic Rock
23,4,19,10,3,18,8,2,21,1,20,10,12,15,12,5,44,11,1,15,54,21,52,7,12,1,10,16,21,1,40,4,1,0,9,15,2,1,0,Classic Rock
3,6,23,9,0,13,3,1,33,0,4,17,5,7,6,0,32,8,1,21,39,8,40,7,12,0,2,19,12,1,31,5,1,21,6,19,4,3,0,Classic Rock
6,4,60,6,0,6,2,0,37,7,18,10,5,7,8,4,42,30,0,31,18,26,33,30,7,0,11,42,39,4,25,16,4,2,1,14,2,10,0,Classic Rock
5,36,52,23,4,11,25,2,8,2,4,7,30,7,46,6,81,13,0,24,56,56,73,32,7,0,6,15,23,2,29,6,6,3,13,6,0,0,0,Rock
10,8,27,6,1,19,11,4,22,0,11,12,5,10,4,6,27,29,0,23,48,24,41,16,30,0,13,24,27,3,48,5,1,10,6,12,5,5,0,Classic Rock
27,1,10,4,1,3,10,0,9,1,11,3,4,1,13,18,16,17,0,10,36,12,42,4,17,13,2,22,16,0,23,7,0,12,8,3,0,4,0,Classic Rock
16,13,48,15,2,9,9,4,39,5,20,15,14,12,10,12,25,17,6,27,30,23,44,17,12,0,16,41,27,4,35,9,5,7,2,17,1,5,0,Rock
9,5,15,0,3,10,5,1,21,0,6,1,9,1,5,3,5,1,2,7,16,9,23,1,10,0,4,16,7,3,14,0,4,1,4,5,1,8,0,Rock
7,3,27,10,2,10,25,1,10,3,12,8,28,4,6,4,17,10,1,15,25,18,43,7,11,0,6,16,18,0,27,3,6,3,7,18,6,2,0,Folk
24,23,77,17,2,24,27,9,53,0,43,28,21,25,15,19,48,42,7,50,73,35,84,13,19,1,20,53,47,10,102,6,14,5,7,27,3,12,1,Acoustic
27,52,78,21,9,33,45,3,104,3,66,23,48,30,21,23,58,36,8,82,85,35,86,23,23,7,51,78,76,7,119,8,17,16,9,24,8,10,0,Folk Rock
22,11,34,17,4,16,8,2,18,1,13,15,21,7,20,6,24,13,0,35,38,29,53,12,21,1,5,38,28,5,21,4,3,7,15,7,10,7,0,Classic Rock
12,22,26,1,1,3,7,2,44,1,29,13,25,16,3,9,37,14,0,6,16,17,45,3,12,0,9,43,30,12,31,2,2,2,13,11,0,0,0,Classic Rock
5,10,22,1,1,10,10,6,9,1,7,4,6,3,5,3,14,28,2,21,21,18,21,8,8,0,12,7,22,3,14,0,2,3,6,4,1,4,0,Classic Rock
28,14,44,17,28,14,4,2,63,1,1,26,24,4,16,8,25,19,7,26,60,36,80,11,27,0,4,16,36,0,65,0,0,2,10,12,0,8,0,Classic Rock
13,20,48,13,3,31,17,8,86,4,53,14,23,15,13,10,34,32,3,44,40,31,71,12,22,2,16,48,66,3,60,14,10,7,10,21,7,7,0,Classic Rock
11,12,39,10,1,10,7,0,27,7,14,8,16,3,4,3,39,14,0,19,21,32,50,11,17,2,8,23,39,9,33,11,3,3,4,13,2,3,0,Country
12,8,49,12,4,52,16,2,35,5,25,11,18,15,13,6,22,16,6,19,69,22,66,6,14,0,9,27,27,26,52,5,5,6,10,13,8,1,1,Rock
24,16,30,3,3,6,6,5,14,0,5,6,19,6,17,6,9,9,8,22,23,18,55,4,3,0,5,19,17,4,29,6,7,6,1,7,2,3,0,Folk Rock
4,15,21,10,3,9,2,3,35,2,24,17,5,13,8,9,21,20,1,12,27,18,39,9,8,2,7,24,26,4,39,5,6,3,10,13,2,3,0,Acoustic
5,5,11,5,4,23,11,3,18,1,10,10,5,8,9,4,14,12,0,19,28,10,31,3,10,0,9,20,16,3,30,2,4,4,2,3,2,1,0,Classic Rock
9,11,27,10,3,16,7,5,27,5,13,12,21,4,14,5,35,15,1,16,31,29,40,24,16,0,7,27,19,1,47,7,4,5,8,21,5,0,0,Classic Rock
9,2,6,10,0,8,0,1,2,0,8,5,14,8,6,0,9,7,4,13,14,5,20,7,3,0,2,7,7,0,17,1,1,0,8,19,3,1,0,Classic Rock
6,10,21,5,1,16,8,4,20,4,21,12,19,6,7,2,20,15,0,12,16,11,31,9,1,0,1,12,24,3,26,5,3,1,17,6,1,3,0,Classic Rock
4,11,17,3,2,10,9,0,18,4,13,8,6,6,5,3,9,12,4,10,20,14,22,3,7,0,6,14,14,1,20,4,0,2,4,5,0,2,0,Folk Rock
10,4,27,5,3,6,13,0,17,1,11,5,7,0,1,4,18,10,0,5,25,6,36,4,8,0,8,13,10,1,13,11,1,2,11,9,1,0,0,Folk Rock
5,6,28,7,2,10,5,0,38,1,7,20,11,3,7,6,24,16,1,19,29,15,43,1,18,2,8,21,38,2,45,2,12,14,4,11,13,6,0,Folk Rock
10,10,30,12,1,24,11,1,40,3,32,21,20,25,9,4,28,18,0,21,38,25,40,7,17,2,11,31,36,2,58,3,4,1,15,11,1,5,0,Acoustic
17,20,83,7,17,11,27,1,49,11,32,31,25,14,10,6,43,23,3,40,57,33,97,12,26,6,15,46,58,8,62,4,9,6,9,15,3,5,0,Rock
3,10,25,5,1,17,2,3,26,2,9,7,4,12,3,3,12,10,0,6,18,22,28,4,6,0,5,16,18,0,19,5,1,1,6,8,3,0,0,Rock
40,3,13,11,1,7,3,0,36,0,19,4,34,9,18,24,11,9,0,14,18,4,45,0,0,1,5,32,15,8,28,0,8,2,5,9,12,0,0,Acoustic
17,5,28,5,2,7,20,3,55,3,13,9,16,7,28,5,35,19,2,25,28,15,37,9,12,2,13,26,20,2,27,5,35,2,10,14,1,5,0,Folk Rock
17,8,27,1,4,6,11,2,18,0,16,5,9,2,5,3,17,18,2,21,20,9,24,10,2,0,15,18,34,9,35,6,2,2,5,5,0,0,0,Folk Rock
22,31,74,11,4,30,38,6,63,5,44,24,50,28,28,16,38,35,6,55,65,42,100,18,9,13,28,60,56,8,90,8,9,13,12,21,11,7,0,Classic Rock
22,15,63,13,9,19,29,1,41,3,35,13,13,13,10,6,74,34,0,71,41,32,80,9,13,1,39,40,35,8,66,7,7,4,8,23,1,7,0,Folk
4,7,11,11,1,14,28,1,36,0,11,7,12,4,5,4,20,28,0,12,27,22,26,9,6,0,0,25,13,2,29,1,6,1,7,14,2,4,0,Classic Rock
13,30,58,13,4,16,13,5,44,2,42,19,22,11,8,13,17,48,23,25,49,22,91,10,28,0,21,38,50,7,45,6,5,6,10,17,4,7,0,Classic Rock
18,26,73,12,4,17,14,4,55,0,22,27,35,25,18,10,58,26,4,41,54,24,57,15,15,1,23,56,48,8,70,6,6,3,9,21,7,21,0,Acoustic
5,2,21,4,1,14,1,2,23,1,11,9,2,2,3,5,36,9,0,23,22,18,18,10,6,1,4,11,23,2,19,4,2,1,12,13,0,2,0,Classic Rock
9,34,67,17,2,18,10,4,65,2,24,23,29,13,31,13,31,40,5,28,48,26,69,21,26,0,16,36,54,6,46,2,1,22,11,16,7,9,0,Classic Rock
2,10,24,0,3,11,4,1,11,0,10,6,5,9,7,8,17,10,0,6,22,11,19,3,2,0,13,15,12,3,23,5,5,4,7,5,0,8,1,Folk Rock
18,5,16,4,0,21,9,2,21,0,12,6,16,7,12,11,19,13,0,18,29,9,29,1,10,4,9,16,14,1,32,1,8,1,4,22,6,4,0,Classic Rock
20,10,13,9,0,3,25,0,20,0,9,2,13,2,1,3,4,8,0,11,21,12,36,0,5,0,2,19,3,0,8,0,0,0,0,14,0,1,0,Rock
5,9,10,4,3,3,0,4,18,0,10,5,8,3,2,6,4,8,2,9,10,7,30,3,4,0,4,13,10,2,14,0,4,5,6,3,0,2,0,Country
32,42,65,8,2,18,32,14,65,3,27,30,34,33,19,21,70,55,9,53,82,46,84,16,32,4,36,47,64,14,80,8,18,30,12,15,3,10,0,Classic Rock
5,4,11,3,0,11,7,2,7,0,7,4,7,3,3,7,14,12,0,15,14,14,10,3,1,0,9,6,14,0,18,1,0,0,10,2,1,0,0,Rock
34,15,36,6,2,11,17,3,20,2,20,18,16,6,15,21,23,37,8,29,21,19,45,11,17,1,28,32,49,3,72,10,1,14,13,9,11,16,0,Rock
22,27,74,12,5,28,28,5,82,4,41,27,24,24,21,11,51,23,5,39,74,30,93,17,25,6,29,50,59,9,83,12,10,24,16,18,8,7,1,Classic Rock
3,10,10,1,2,10,3,0,15,0,16,3,14,4,0,3,8,25,0,9,18,13,16,4,1,0,4,21,26,8,22,1,1,0,7,6,3,2,0,Classic Rock
8,10,25,7,3,16,15,3,22,5,23,15,10,15,5,7,38,25,1,25,27,22,33,20,9,0,12,28,32,3,41,13,1,7,9,12,5,7,0,Folk
34,3,27,6,5,27,14,3,49,0,19,4,15,5,8,7,37,3,3,12,20,97,55,0,23,0,2,7,41,0,25,2,0,24,2,13,0,18,0,Acoustic
3,1,14,3,5,0,3,0,12,0,3,6,1,0,2,6,11,5,0,3,15,10,13,3,4,0,4,11,7,0,10,5,2,8,4,9,1,1,0,Classic Rock
19,10,21,15,1,12,13,1,30,2,19,13,13,6,17,8,15,21,0,14,33,16,41,15,27,0,6,42,24,3,41,5,4,4,14,15,4,6,0,Rock
22,29,90,12,9,36,18,16,78,2,27,28,27,41,11,13,75,26,6,46,89,40,78,44,29,0,27,59,64,14,92,5,1,13,9,20,7,14,0,Pop
6,5,9,7,1,9,6,3,11,1,9,9,15,6,5,9,26,9,4,13,11,19,24,11,13,0,10,22,30,4,20,0,1,4,7,9,3,2,0,Classic Rock
32,30,48,24,3,41,25,4,52,7,37,39,29,16,34,14,63,32,3,44,72,37,85,18,11,2,21,60,45,5,83,6,8,7,33,28,5,14,0,Rock
10,2,37,10,5,7,16,0,22,1,28,12,12,11,10,4,30,16,3,18,36,11,31,6,4,0,3,38,17,3,50,3,1,17,16,12,4,7,0,Classic Rock
5,5,20,0,1,56,8,0,17,6,6,15,2,3,3,3,9,5,0,9,12,5,77,7,7,0,4,8,9,1,61,3,2,3,3,3,2,2,0,Rock
16,20,42,23,3,30,17,4,39,1,33,24,17,12,16,18,54,29,7,30,41,27,63,17,17,2,19,57,31,6,63,9,4,12,26,34,5,10,0,Classic Rock
7,8,20,7,4,0,2,6,39,2,23,22,10,9,7,10,19,5,1,9,14,12,33,2,8,1,8,23,26,4,17,2,1,0,4,8,0,4,0,Rock
10,15,24,1,1,16,4,2,25,2,8,12,10,3,6,5,17,11,0,8,29,26,33,3,5,1,4,14,21,7,25,0,0,6,4,5,4,4,0,Acoustic
12,6,16,2,2,6,6,0,15,0,4,2,13,1,6,0,4,8,0,22,21,13,15,2,9,0,0,11,18,3,7,0,6,0,4,4,0,0,0,Acoustic
7,18,18,0,1,7,12,0,18,1,12,12,2,0,4,18,4,5,0,5,29,4,15,6,11,0,3,12,4,0,31,0,0,1,2,5,2,1,0,Classic Rock
11,2,10,6,4,6,5,0,21,0,14,2,8,6,3,1,9,7,3,8,14,13,25,1,4,1,8,7,23,1,13,1,0,4,5,2,4,7,0,Rock
8,9,25,12,1,18,6,6,19,7,27,16,19,3,8,4,28,10,2,18,34,19,45,14,9,0,9,24,27,2,37,1,2,0,6,20,4,4,0,Classic Rock
1,6,16,4,2,7,0,2,13,1,8,6,7,2,4,7,13,8,1,9,23,18,15,4,8,0,10,10,19,0,16,2,0,4,3,4,1,1,0,Classic Rock
38,11,69,6,3,19,16,8,51,4,45,23,16,14,23,17,44,33,12,53,55,31,79,8,21,3,15,47,41,6,81,5,15,10,14,20,6,6,0,Acoustic
14,37,93,18,25,16,42,1,52,3,59,18,18,25,20,4,61,40,5,107,70,66,92,19,17,0,17,60,91,9,101,9,11,61,1,35,3,4,0,Acoustic
18,14,50,13,7,36,25,5,62,15,41,14,29,23,11,9,41,35,5,32,62,35,65,12,20,0,25,71,47,4,83,5,15,16,17,20,7,9,0,Classic Rock
1,13,16,12,7,6,8,0,33,2,14,6,8,3,4,1,6,5,2,11,21,12,32,8,8,0,2,9,14,1,16,0,1,2,4,12,0,2,0,Folk
24,3,10,1,0,18,7,1,17,0,9,2,2,4,7,10,9,5,0,5,26,15,34,1,8,0,2,15,5,1,42,0,2,3,2,1,3,2,0,Rock
17,0,17,3,0,6,26,4,28,1,3,12,4,0,17,8,29,21,0,6,43,11,24,8,22,0,0,4,9,0,20,0,0,10,7,17,0,1,0,Classic Rock
13,6,45,11,4,11,20,0,38,7,37,22,10,6,17,10,34,39,3,22,39,19,56,13,12,1,7,21,38,4,49,7,7,8,21,20,5,2,0,Rock
14,7,30,9,3,19,9,8,22,1,23,12,15,9,10,12,30,23,2,15,39,23,39,10,9,0,7,24,33,2,49,4,0,8,19,14,6,8,1,Classic Rock
0,0,20,5,5,10,0,0,20,0,0,5,0,0,5,15,10,0,0,0,0,10,15,0,5,0,5,10,15,0,10,0,0,0,0,0,0,5,0,Classic Rock
21,22,41,9,1,12,18,0,26,0,9,10,15,18,12,4,32,25,1,35,40,26,43,2,15,0,7,29,18,15,40,8,2,3,6,9,2,4,0,Rock
