AH,99452
AA,18977
IH,51507
IY,38798
UH,5053
UW,12555
AY,17491
EY,22669
AE,22515
EH,36202
AO,14705
AW,4154
OW,15675
OY,1355
K,48936
G,12952
D,47408
HH,8504
CH,6150
JH,8495
Y,8899
SH,12225
T,73579
R,54050
ER,29992
TH,5744
DH,2453
N,74611
NG,15478
L,57245
S,59783
Z,11616
ZH,932
P,31868
F,18433
B,17530
M,34538
V,14808
W,14790
